id	data_format	access	cases	file_name	submitter_id	data_category	type	file_size	created_datetime	updated_datetime	md5sum	file_id	data_type	state	experimental_strategy	version	data_release	project	analysis_id	analysis_state	analysis_submitter_id	analysis_workflow_link	analysis_workflow_type	analysis_workflow_version	sample_type	is_ffpe	cases.submitter_id	sample.submitter_id
21f2e1df-9797-4d33-ab48-34d4b53c25d8	TXT	open	TCGA-91-6831-11A-02R-1858-07	890494a7-cfed-413e-97e9-2ccf0257d94a.htseq.counts.gz	890494a7-cfed-413e-97e9-2ccf0257d94a_count	Transcriptome Profiling	gene_expression	244321	2016-05-29T11:07:16.221367-05:00	2018-09-06T21:10:41.393019-05:00	c9d8bdb9efbe118f0d904a9e613798fd	21f2e1df-9797-4d33-ab48-34d4b53c25d8	Gene Expression Quantification	released	RNA-Seq	1	12.0 - 30.0	TCGA-LUAD	99406c13-31ec-4605-b071-ac05e44810d2	released	890494a7-cfed-413e-97e9-2ccf0257d94a_count	https://github.com/NCI-GDC/htseq-cwl	HTSeq - Counts	v1	Solid Tissue Normal	FALSE	TCGA-91-6831	TCGA-91-6831-11A
b854dcef-2d6a-407c-8df2-4a01dcf612e1	TXT	open	TCGA-44-2661-01A-01R-1107-07	7f39b57f-556b-46b2-a67a-af86345f900a.htseq.counts.gz	7f39b57f-556b-46b2-a67a-af86345f900a_count	Transcriptome Profiling	gene_expression	254905	2016-05-30T19:01:20.385744-05:00	2018-09-06T21:10:41.393019-05:00	f3c3ea057af0dd90c2ca44552d71ccc8	b854dcef-2d6a-407c-8df2-4a01dcf612e1	Gene Expression Quantification	released	RNA-Seq	1	12.0 - 30.0	TCGA-LUAD	ebea18cd-6075-4f89-83bc-0720b750aeaa	released	7f39b57f-556b-46b2-a67a-af86345f900a_count	https://github.com/NCI-GDC/htseq-cwl	HTSeq - Counts	v1	Primary Tumor	FALSE	TCGA-44-2661	TCGA-44-2661-01A
5c3526dd-343b-452b-bd79-876af18dbbc9	TXT	open	TCGA-44-6778-11A-01R-1858-07	ac5bc405-b210-4bf3-a4e6-6ff071aa59c7.htseq.counts.gz	ac5bc405-b210-4bf3-a4e6-6ff071aa59c7_count	Transcriptome Profiling	gene_expression	252081	2016-05-29T10:34:59.408210-05:00	2018-09-06T21:10:41.393019-05:00	f42b09da21a02bd529b90da57b0bdbab	5c3526dd-343b-452b-bd79-876af18dbbc9	Gene Expression Quantification	released	RNA-Seq	1	12.0 - 30.0	TCGA-LUAD	50ae0787-9677-4950-a729-8ff14c8e1684	released	ac5bc405-b210-4bf3-a4e6-6ff071aa59c7_count	https://github.com/NCI-GDC/htseq-cwl	HTSeq - Counts	v1	Solid Tissue Normal	FALSE	TCGA-44-6778	TCGA-44-6778-11A
b8db3596-831c-42e2-bb9d-ce13de5b2c9a	TXT	open	TCGA-55-6981-11A-01R-1949-07	5da55f22-6bc2-4c07-88f1-6516db69deb3.htseq.counts.gz	5da55f22-6bc2-4c07-88f1-6516db69deb3_count	Transcriptome Profiling	gene_expression	249305	2016-05-26T21:10:12.996093-05:00	2018-09-06T21:10:41.393019-05:00	a631724352a72e29ea863ff90724bad0	b8db3596-831c-42e2-bb9d-ce13de5b2c9a	Gene Expression Quantification	released	RNA-Seq	1	12.0 - 30.0	TCGA-LUAD	6c95c253-c074-47bd-800c-1ee4f52c8666	released	5da55f22-6bc2-4c07-88f1-6516db69deb3_count	https://github.com/NCI-GDC/htseq-cwl	HTSeq - Counts	v1	Solid Tissue Normal	FALSE	TCGA-55-6981	TCGA-55-6981-11A
6e554967-0f58-4eea-aefc-c27118a053a6	TXT	open	TCGA-38-4626-01A-01R-1206-07	05028ec2-a686-4965-8351-e70c6537091a.htseq.counts.gz	05028ec2-a686-4965-8351-e70c6537091a_count	Transcriptome Profiling	gene_expression	259714	2016-05-26T21:20:58.610863-05:00	2018-09-06T21:10:41.393019-05:00	5506f6bdb9ed02aea912db8831c7c788	6e554967-0f58-4eea-aefc-c27118a053a6	Gene Expression Quantification	released	RNA-Seq	1	12.0 - 30.0	TCGA-LUAD	901d1ef4-9928-4602-a1b9-48f454b32400	released	05028ec2-a686-4965-8351-e70c6537091a_count	https://github.com/NCI-GDC/htseq-cwl	HTSeq - Counts	v1	Primary Tumor	FALSE	TCGA-38-4626	TCGA-38-4626-01A
2f0a9ef5-b2f4-4d26-b393-fb41e6787a03	TXT	open	TCGA-55-6980-11A-01R-1949-07	e95d6e6b-6aaf-4003-9dc6-4b464a9d1725.htseq.counts.gz	e95d6e6b-6aaf-4003-9dc6-4b464a9d1725_count	Transcriptome Profiling	gene_expression	248020	2016-05-29T10:07:57.470945-05:00	2018-09-06T21:10:41.393019-05:00	8094dafe7feb0b5920943de8bd561ba3	2f0a9ef5-b2f4-4d26-b393-fb41e6787a03	Gene Expression Quantification	released	RNA-Seq	1	12.0 - 30.0	TCGA-LUAD	6af06eeb-b58d-4532-8f56-49994570c137	released	e95d6e6b-6aaf-4003-9dc6-4b464a9d1725_count	https://github.com/NCI-GDC/htseq-cwl	HTSeq - Counts	v1	Solid Tissue Normal	FALSE	TCGA-55-6980	TCGA-55-6980-11A
9117a026-aa52-4e30-8a12-2f390b27c5b0	TXT	open	TCGA-50-5935-01A-11R-1755-07	0bf53fc6-b8fb-4e6d-9297-4129c708f3da.htseq.counts.gz	0bf53fc6-b8fb-4e6d-9297-4129c708f3da_count	Transcriptome Profiling	gene_expression	249918	2016-05-26T21:13:02.747063-05:00	2018-09-06T21:10:41.393019-05:00	0524fc1402839a4716808b95a1dbea87	9117a026-aa52-4e30-8a12-2f390b27c5b0	Gene Expression Quantification	released	RNA-Seq	1	12.0 - 30.0	TCGA-LUAD	732f4b9b-ef11-411d-bdb6-02600ddfac1a	released	0bf53fc6-b8fb-4e6d-9297-4129c708f3da_count	https://github.com/NCI-GDC/htseq-cwl	HTSeq - Counts	v1	Primary Tumor	FALSE	TCGA-50-5935	TCGA-50-5935-01A
e5ac41ab-4977-4114-a8e7-c93499a7fa1b	TXT	open	TCGA-44-6146-01A-11R-1755-07	dc724482-dc82-41e0-9f01-3451e5be2ae8.htseq.counts.gz	dc724482-dc82-41e0-9f01-3451e5be2ae8_count	Transcriptome Profiling	gene_expression	251088	2016-05-26T21:11:05.749544-05:00	2018-09-06T21:10:41.393019-05:00	31f13702b224bd88af33d7abeaab4521	e5ac41ab-4977-4114-a8e7-c93499a7fa1b	Gene Expression Quantification	released	RNA-Seq	1	12.0 - 30.0	TCGA-LUAD	df91c47e-4447-4eb2-900f-3ac417945faf	released	dc724482-dc82-41e0-9f01-3451e5be2ae8_count	https://github.com/NCI-GDC/htseq-cwl	HTSeq - Counts	v1	Primary Tumor	FALSE	TCGA-44-6146	TCGA-44-6146-01A
1259fc1b-7fc8-4da6-97f8-9db96f5cd1bc	TXT	open	TCGA-50-5932-11A-01R-1755-07	2291ce95-0573-4402-8c25-ec5a824212d9.htseq.counts.gz	2291ce95-0573-4402-8c25-ec5a824212d9_count	Transcriptome Profiling	gene_expression	246718	2016-05-30T18:56:54.846907-05:00	2018-09-06T21:10:41.393019-05:00	3d8a07246deb6a09bdf09fadb7ac0d03	1259fc1b-7fc8-4da6-97f8-9db96f5cd1bc	Gene Expression Quantification	released	RNA-Seq	1	12.0 - 30.0	TCGA-LUAD	165b1d2c-f83e-4ef4-864d-2aa31eff4642	released	2291ce95-0573-4402-8c25-ec5a824212d9_count	https://github.com/NCI-GDC/htseq-cwl	HTSeq - Counts	v1	Solid Tissue Normal	FALSE	TCGA-50-5932	TCGA-50-5932-11A
214a3018-5f2f-4340-bde2-7f893b84e573	TXT	open	TCGA-50-5939-11A-01R-1628-07	bc81c085-a31e-4b2d-9697-3680d9b0f132.htseq.counts.gz	bc81c085-a31e-4b2d-9697-3680d9b0f132_count	Transcriptome Profiling	gene_expression	248552	2016-05-26T21:14:20.092238-05:00	2018-09-06T21:10:41.393019-05:00	7bdf731acab645997754d5124bc15588	214a3018-5f2f-4340-bde2-7f893b84e573	Gene Expression Quantification	released	RNA-Seq	1	12.0 - 30.0	TCGA-LUAD	9743b8fa-4b59-48bb-8be1-d2e0d0f15733	released	bc81c085-a31e-4b2d-9697-3680d9b0f132_count	https://github.com/NCI-GDC/htseq-cwl	HTSeq - Counts	v1	Solid Tissue Normal	FALSE	TCGA-50-5939	TCGA-50-5939-11A
14f333d4-e0ca-4205-977f-5f878d27a245	TXT	open	TCGA-50-5930-01A-11R-1755-07	1b503435-1ff4-4e3f-b07e-96adbe94549a.htseq.counts.gz	1b503435-1ff4-4e3f-b07e-96adbe94549a_count	Transcriptome Profiling	gene_expression	242932	2016-05-29T10:12:00.000765-05:00	2018-09-06T21:10:41.393019-05:00	ac0dec7e05f9c58572f59b3773cdac03	14f333d4-e0ca-4205-977f-5f878d27a245	Gene Expression Quantification	released	RNA-Seq	1	12.0 - 30.0	TCGA-LUAD	021cef27-5d68-4042-8073-2c190cd011cc	released	1b503435-1ff4-4e3f-b07e-96adbe94549a_count	https://github.com/NCI-GDC/htseq-cwl	HTSeq - Counts	v1	Primary Tumor	FALSE	TCGA-50-5930	TCGA-50-5930-01A
ca57a7b9-b3f4-4174-acf4-0af44e52233c	TXT	open	TCGA-55-6968-01A-11R-1949-07	9bab6023-8adb-4257-8c2a-88ddedf4a229.htseq.counts.gz	9bab6023-8adb-4257-8c2a-88ddedf4a229_count	Transcriptome Profiling	gene_expression	251386	2016-05-30T18:28:16.284250-05:00	2018-09-06T21:10:41.393019-05:00	e9417869a08cdabd62c9d259e82e82ac	ca57a7b9-b3f4-4174-acf4-0af44e52233c	Gene Expression Quantification	released	RNA-Seq	1	12.0 - 30.0	TCGA-LUAD	8c3153e1-8138-4089-95fe-9387b5272730	released	9bab6023-8adb-4257-8c2a-88ddedf4a229_count	https://github.com/NCI-GDC/htseq-cwl	HTSeq - Counts	v1	Primary Tumor	FALSE	TCGA-55-6968	TCGA-55-6968-01A
59fbdda7-7cd1-44e3-8b18-736e6e3898b2	TXT	open	TCGA-50-6595-01A-12R-1858-07	32f7779d-9065-4241-ad44-efe90148ac23.htseq.counts.gz	32f7779d-9065-4241-ad44-efe90148ac23_count	Transcriptome Profiling	gene_expression	247482	2016-05-30T18:27:43.063252-05:00	2018-09-06T21:10:41.393019-05:00	3faa09de0a4db4d8b712b10b5343ebf4	59fbdda7-7cd1-44e3-8b18-736e6e3898b2	Gene Expression Quantification	released	RNA-Seq	1	12.0 - 30.0	TCGA-LUAD	1c930f46-3b2a-4b71-825f-0a58ec49e420	released	32f7779d-9065-4241-ad44-efe90148ac23_count	https://github.com/NCI-GDC/htseq-cwl	HTSeq - Counts	v1	Primary Tumor	FALSE	TCGA-50-6595	TCGA-50-6595-01A
6f42c71f-4f7f-4465-a98e-a3e0eaeb7950	TXT	open	TCGA-49-4512-01A-21R-1858-07	e657cd5a-217e-45df-8203-a3f8c4907f4a.htseq.counts.gz	e657cd5a-217e-45df-8203-a3f8c4907f4a_count	Transcriptome Profiling	gene_expression	249543	2016-05-30T18:35:17.738685-05:00	2018-09-06T21:10:41.393019-05:00	0dddce0d1ca341188cf795f5d4fdb5f8	6f42c71f-4f7f-4465-a98e-a3e0eaeb7950	Gene Expression Quantification	released	RNA-Seq	1	12.0 - 30.0	TCGA-LUAD	18e8024d-dac2-4d76-afed-b87fab6f3a0c	released	e657cd5a-217e-45df-8203-a3f8c4907f4a_count	https://github.com/NCI-GDC/htseq-cwl	HTSeq - Counts	v1	Primary Tumor	FALSE	TCGA-49-4512	TCGA-49-4512-01A
fb34698a-954b-4f8b-ab71-93818142eb61	TXT	open	TCGA-44-3398-01A-01R-1107-07	e3b11f64-075b-49d2-8d18-85afab1cff82.htseq.counts.gz	e3b11f64-075b-49d2-8d18-85afab1cff82_count	Transcriptome Profiling	gene_expression	255924	2016-06-01T23:31:23.289628-05:00	2018-09-06T21:10:41.393019-05:00	5a50f360bd03dad563d82f90feeb0116	fb34698a-954b-4f8b-ab71-93818142eb61	Gene Expression Quantification	released	RNA-Seq	1	12.0 - 30.0	TCGA-LUAD	b8ec1c3a-2413-4d36-8607-6950d9ddab77	released	e3b11f64-075b-49d2-8d18-85afab1cff82_count	https://github.com/NCI-GDC/htseq-cwl	HTSeq - Counts	v1	Primary Tumor	FALSE	TCGA-44-3398	TCGA-44-3398-01A
762e0be3-784f-445c-b122-fd975f09e344	TXT	open	TCGA-44-2662-01A-01R-A278-07	6262c85a-4d2c-4b03-a3c3-1bbe5dfb008a.htseq.counts.gz	6262c85a-4d2c-4b03-a3c3-1bbe5dfb008a_count	Transcriptome Profiling	gene_expression	257302	2016-05-30T18:49:21.163567-05:00	2018-09-06T21:10:41.393019-05:00	ab9994edb2640df7f89131ed6336d248	762e0be3-784f-445c-b122-fd975f09e344	Gene Expression Quantification	released	RNA-Seq	1	12.0 - 30.0	TCGA-LUAD	c01d7679-2fcc-4247-a416-98cd9bbb786e	released	6262c85a-4d2c-4b03-a3c3-1bbe5dfb008a_count	https://github.com/NCI-GDC/htseq-cwl	HTSeq - Counts	v1	Primary Tumor	FALSE	TCGA-44-2662	TCGA-44-2662-01A
b5206dc2-c8ea-4b06-869c-ea0663e43afa	TXT	open	TCGA-55-6978-01A-11R-1949-07	12b16f45-0e5e-4c24-85b5-fd05a6482fa2.htseq.counts.gz	12b16f45-0e5e-4c24-85b5-fd05a6482fa2_count	Transcriptome Profiling	gene_expression	255632	2016-05-29T10:27:48.424510-05:00	2018-09-06T21:10:41.393019-05:00	b4b8c9f07e7f6d275fa9874ebc13532c	b5206dc2-c8ea-4b06-869c-ea0663e43afa	Gene Expression Quantification	released	RNA-Seq	1	12.0 - 30.0	TCGA-LUAD	0e2d0125-df22-4943-8af9-6cf0c333781b	released	12b16f45-0e5e-4c24-85b5-fd05a6482fa2_count	https://github.com/NCI-GDC/htseq-cwl	HTSeq - Counts	v1	Primary Tumor	FALSE	TCGA-55-6978	TCGA-55-6978-01A
645ad7f9-dc9a-43e8-a677-5339150b849f	TXT	open	TCGA-44-6148-11A-01R-1858-07	96dcdf87-8eff-4edb-b99b-0854e5d66832.htseq.counts.gz	96dcdf87-8eff-4edb-b99b-0854e5d66832_count	Transcriptome Profiling	gene_expression	256347	2016-05-29T10:48:00.477555-05:00	2018-09-06T21:10:41.393019-05:00	27a9ddcb28b74f79c093177b59e71574	645ad7f9-dc9a-43e8-a677-5339150b849f	Gene Expression Quantification	released	RNA-Seq	1	12.0 - 30.0	TCGA-LUAD	248e1ecd-3256-4fa4-9a79-1d3ef4304e14	released	96dcdf87-8eff-4edb-b99b-0854e5d66832_count	https://github.com/NCI-GDC/htseq-cwl	HTSeq - Counts	v1	Solid Tissue Normal	FALSE	TCGA-44-6148	TCGA-44-6148-11A
6c9d7d9a-035a-4241-9a5b-f553e57bdbfa	TXT	open	TCGA-55-6970-11A-01R-1949-07	73912113-540a-41bd-ada5-4f427592dfee.htseq.counts.gz	73912113-540a-41bd-ada5-4f427592dfee_count	Transcriptome Profiling	gene_expression	249498	2016-05-30T18:25:02.390953-05:00	2018-09-06T21:10:41.393019-05:00	fc1fe06a6824aba67851b1cab9d3c12f	6c9d7d9a-035a-4241-9a5b-f553e57bdbfa	Gene Expression Quantification	released	RNA-Seq	1	12.0 - 30.0	TCGA-LUAD	8dd9ac2a-91a3-4ee5-89c4-ad77355ca75f	released	73912113-540a-41bd-ada5-4f427592dfee_count	https://github.com/NCI-GDC/htseq-cwl	HTSeq - Counts	v1	Solid Tissue Normal	FALSE	TCGA-55-6970	TCGA-55-6970-11A
9b4b5fb6-e021-48aa-a9eb-ef3a40fa9b76	TXT	open	TCGA-49-4512-11A-01R-1858-07	2b2b6341-1f6d-4acc-8a67-0ba8ab051ee8.htseq.counts.gz	2b2b6341-1f6d-4acc-8a67-0ba8ab051ee8_count	Transcriptome Profiling	gene_expression	245414	2016-05-30T18:35:18.242513-05:00	2018-09-06T21:10:41.393019-05:00	c602d01d6bee41f2c5d493c698fbd73b	9b4b5fb6-e021-48aa-a9eb-ef3a40fa9b76	Gene Expression Quantification	released	RNA-Seq	1	12.0 - 30.0	TCGA-LUAD	03c04ce4-eaad-46d7-be96-ccb6990886b9	released	2b2b6341-1f6d-4acc-8a67-0ba8ab051ee8_count	https://github.com/NCI-GDC/htseq-cwl	HTSeq - Counts	v1	Solid Tissue Normal	FALSE	TCGA-49-4512	TCGA-49-4512-11A
ecd9091a-4d46-4a74-ada2-24c4b2e64526	TXT	open	TCGA-55-6982-01A-11R-1949-07	6ad59e49-f417-4144-9c13-51b24f66422a.htseq.counts.gz	6ad59e49-f417-4144-9c13-51b24f66422a_count	Transcriptome Profiling	gene_expression	247355	2016-05-29T10:11:36.783438-05:00	2018-09-06T21:10:41.393019-05:00	59b35f6044c7682702364158ec71e98c	ecd9091a-4d46-4a74-ada2-24c4b2e64526	Gene Expression Quantification	released	RNA-Seq	1	12.0 - 30.0	TCGA-LUAD	3183c52f-f27c-4132-87eb-e2b11c6cbded	released	6ad59e49-f417-4144-9c13-51b24f66422a_count	https://github.com/NCI-GDC/htseq-cwl	HTSeq - Counts	v1	Primary Tumor	FALSE	TCGA-55-6982	TCGA-55-6982-01A
f1e069a3-1c8e-4293-ae70-acfe52f64c5d	TXT	open	TCGA-50-5936-01A-11R-1628-07	aa5ba703-5bc5-4536-98cd-ab31520d29d7.htseq.counts.gz	aa5ba703-5bc5-4536-98cd-ab31520d29d7_count	Transcriptome Profiling	gene_expression	245553	2016-05-30T18:59:01.081003-05:00	2018-09-06T21:10:41.393019-05:00	bb453c7d8eb3dfe6f257a1f283aecb07	f1e069a3-1c8e-4293-ae70-acfe52f64c5d	Gene Expression Quantification	released	RNA-Seq	1	12.0 - 30.0	TCGA-LUAD	2ff5e851-4b19-4777-8ac6-20ae7d27b8a1	released	aa5ba703-5bc5-4536-98cd-ab31520d29d7_count	https://github.com/NCI-GDC/htseq-cwl	HTSeq - Counts	v1	Primary Tumor	FALSE	TCGA-50-5936	TCGA-50-5936-01A
80514b4b-da7a-455d-bc0d-8a3a1b7afaeb	TXT	open	TCGA-55-6972-11A-01R-1949-07	4e3e715c-d067-48d9-96cc-0a49c3ac611a.htseq.counts.gz	4e3e715c-d067-48d9-96cc-0a49c3ac611a_count	Transcriptome Profiling	gene_expression	249208	2016-05-30T18:45:10.334929-05:00	2018-09-06T21:10:41.393019-05:00	ac71fd3b501fd0751320f0c214b6e32a	80514b4b-da7a-455d-bc0d-8a3a1b7afaeb	Gene Expression Quantification	released	RNA-Seq	1	12.0 - 30.0	TCGA-LUAD	0009c3ed-d3b4-41c4-b6d8-f2e26d2582f3	released	4e3e715c-d067-48d9-96cc-0a49c3ac611a_count	https://github.com/NCI-GDC/htseq-cwl	HTSeq - Counts	v1	Solid Tissue Normal	FALSE	TCGA-55-6972	TCGA-55-6972-11A
c1d3cd9f-f856-49ef-9db0-39e619095e95	TXT	open	TCGA-73-4676-01A-01R-1755-07	2d0ce6d3-9a09-46ba-9c91-bd4f3764e490.htseq.counts.gz	2d0ce6d3-9a09-46ba-9c91-bd4f3764e490_count	Transcriptome Profiling	gene_expression	248715	2016-05-26T21:17:41.708359-05:00	2018-09-06T21:10:41.393019-05:00	cee767d5554778f3cbd4667593a79771	c1d3cd9f-f856-49ef-9db0-39e619095e95	Gene Expression Quantification	released	RNA-Seq	1	12.0 - 30.0	TCGA-LUAD	cf9bd397-9490-4690-994e-f1c9bfd1e516	released	2d0ce6d3-9a09-46ba-9c91-bd4f3764e490_count	https://github.com/NCI-GDC/htseq-cwl	HTSeq - Counts	v1	Primary Tumor	FALSE	TCGA-73-4676	TCGA-73-4676-01A
3869800d-4625-437a-a78a-d9d86fe1a33f	TXT	open	TCGA-44-6777-01A-11R-1858-07	5b84c002-9ca2-4188-bf22-1e0994dd3978.htseq.counts.gz	5b84c002-9ca2-4188-bf22-1e0994dd3978_count	Transcriptome Profiling	gene_expression	248745	2016-05-29T10:11:04.742315-05:00	2018-09-06T21:10:41.393019-05:00	3438bf019049c51bbd99a378c8406772	3869800d-4625-437a-a78a-d9d86fe1a33f	Gene Expression Quantification	released	RNA-Seq	1	12.0 - 30.0	TCGA-LUAD	5323d5da-c5ea-4a04-a3f1-2d9c673b8cce	released	5b84c002-9ca2-4188-bf22-1e0994dd3978_count	https://github.com/NCI-GDC/htseq-cwl	HTSeq - Counts	v1	Primary Tumor	FALSE	TCGA-44-6777	TCGA-44-6777-01A
916f8b6b-aed8-4b59-b732-d69c6de026fa	TXT	open	TCGA-55-6980-01A-11R-1949-07	3fbe693e-0d6c-4866-8b4d-2e9738c93e8d.htseq.counts.gz	3fbe693e-0d6c-4866-8b4d-2e9738c93e8d_count	Transcriptome Profiling	gene_expression	247132	2016-05-29T10:07:58.091873-05:00	2018-09-06T21:10:41.393019-05:00	2152ef8a9e709d488bd4728b9daa62ff	916f8b6b-aed8-4b59-b732-d69c6de026fa	Gene Expression Quantification	released	RNA-Seq	1	12.0 - 30.0	TCGA-LUAD	862c8125-353d-4576-a58a-9cab8ab7e796	released	3fbe693e-0d6c-4866-8b4d-2e9738c93e8d_count	https://github.com/NCI-GDC/htseq-cwl	HTSeq - Counts	v1	Primary Tumor	FALSE	TCGA-55-6980	TCGA-55-6980-01A
e06229fb-1a32-4636-b191-837797540806	TXT	open	TCGA-49-4490-01A-21R-1858-07	82cd39d8-7a0d-4ebf-adad-57b3a4e68262.htseq.counts.gz	82cd39d8-7a0d-4ebf-adad-57b3a4e68262_count	Transcriptome Profiling	gene_expression	248595	2016-05-30T18:16:49.281127-05:00	2018-09-06T21:10:41.393019-05:00	b034664efdeb95247f6cab7d5fefc825	e06229fb-1a32-4636-b191-837797540806	Gene Expression Quantification	released	RNA-Seq	1	12.0 - 30.0	TCGA-LUAD	e91b9cb3-4265-425c-9214-b8a7d7af0336	released	82cd39d8-7a0d-4ebf-adad-57b3a4e68262_count	https://github.com/NCI-GDC/htseq-cwl	HTSeq - Counts	v1	Primary Tumor	FALSE	TCGA-49-4490	TCGA-49-4490-01A
a085eaf7-b0af-4c76-bdd3-7ab187ea0989	TXT	open	TCGA-55-6985-01A-11R-1949-07	3107533c-054e-463c-b2bc-73ba71ed133a.htseq.counts.gz	3107533c-054e-463c-b2bc-73ba71ed133a_count	Transcriptome Profiling	gene_expression	250618	2016-05-29T11:13:56.833433-05:00	2018-09-06T21:10:41.393019-05:00	6be44271d5bedaa96778056a630dab2c	a085eaf7-b0af-4c76-bdd3-7ab187ea0989	Gene Expression Quantification	released	RNA-Seq	1	12.0 - 30.0	TCGA-LUAD	3e2a486f-5885-4826-b86c-89a20e0c9896	released	3107533c-054e-463c-b2bc-73ba71ed133a_count	https://github.com/NCI-GDC/htseq-cwl	HTSeq - Counts	v1	Primary Tumor	FALSE	TCGA-55-6985	TCGA-55-6985-01A
7f1ddd77-50ac-4595-a104-fdbbaed434dc	TXT	open	TCGA-55-6972-01A-11R-1949-07	6d53bf05-58d4-4633-b2da-0dd71d89ee91.htseq.counts.gz	6d53bf05-58d4-4633-b2da-0dd71d89ee91_count	Transcriptome Profiling	gene_expression	246002	2016-05-30T18:45:10.877875-05:00	2018-09-06T21:10:41.393019-05:00	ea876ca16b60c50e3a35b9f2664572a8	7f1ddd77-50ac-4595-a104-fdbbaed434dc	Gene Expression Quantification	released	RNA-Seq	1	12.0 - 30.0	TCGA-LUAD	6d2973d4-a46c-4a60-9122-ed51e4781d66	released	6d53bf05-58d4-4633-b2da-0dd71d89ee91_count	https://github.com/NCI-GDC/htseq-cwl	HTSeq - Counts	v1	Primary Tumor	FALSE	TCGA-55-6972	TCGA-55-6972-01A
ab93f0f6-d381-46ae-9330-b5c20e4abcc5	TXT	open	TCGA-55-6971-01A-11R-1949-07	55d79fa7-5feb-4c1a-9572-aaac7ba5eb7e.htseq.counts.gz	55d79fa7-5feb-4c1a-9572-aaac7ba5eb7e_count	Transcriptome Profiling	gene_expression	250449	2016-05-29T10:49:57.084950-05:00	2018-09-06T21:10:41.393019-05:00	b312ddde3c9b67a2457633b65ab86396	ab93f0f6-d381-46ae-9330-b5c20e4abcc5	Gene Expression Quantification	released	RNA-Seq	1	12.0 - 30.0	TCGA-LUAD	cfb2d3d3-9b46-4fa4-bfe3-f207c7a42cd5	released	55d79fa7-5feb-4c1a-9572-aaac7ba5eb7e_count	https://github.com/NCI-GDC/htseq-cwl	HTSeq - Counts	v1	Primary Tumor	FALSE	TCGA-55-6971	TCGA-55-6971-01A
bcc3ca87-4c57-439c-8582-c00c0d98ea9e	TXT	open	TCGA-49-6743-11A-01R-1858-07	6d0cf353-e818-4173-a200-2c8dd85d49f1.htseq.counts.gz	6d0cf353-e818-4173-a200-2c8dd85d49f1_count	Transcriptome Profiling	gene_expression	248456	2016-05-30T18:36:08.195349-05:00	2018-09-06T21:10:41.393019-05:00	fba649a47a21382dcbf3129765f93d67	bcc3ca87-4c57-439c-8582-c00c0d98ea9e	Gene Expression Quantification	released	RNA-Seq	1	12.0 - 30.0	TCGA-LUAD	ec3250f3-fa8a-4de4-ae08-93d2c4318265	released	6d0cf353-e818-4173-a200-2c8dd85d49f1_count	https://github.com/NCI-GDC/htseq-cwl	HTSeq - Counts	v1	Solid Tissue Normal	FALSE	TCGA-49-6743	TCGA-49-6743-11A
43318e69-4aa1-4f76-ba79-658a3a04fe87	TXT	open	TCGA-49-6745-01A-11R-1858-07	022cbd07-3e20-4144-b2ab-8c76adffae73.htseq.counts.gz	022cbd07-3e20-4144-b2ab-8c76adffae73_count	Transcriptome Profiling	gene_expression	249921	2016-05-30T18:32:25.892743-05:00	2018-09-06T21:10:41.393019-05:00	b017259ce3bcf7247f3fc265a7fac226	43318e69-4aa1-4f76-ba79-658a3a04fe87	Gene Expression Quantification	released	RNA-Seq	1	12.0 - 30.0	TCGA-LUAD	b6eee850-1fcc-42eb-b2df-28208a8c6269	released	022cbd07-3e20-4144-b2ab-8c76adffae73_count	https://github.com/NCI-GDC/htseq-cwl	HTSeq - Counts	v1	Primary Tumor	FALSE	TCGA-49-6745	TCGA-49-6745-01A
e00d3b16-35f7-4f78-8691-a96344318212	TXT	open	TCGA-50-6595-11A-01R-1858-07	c962af41-67e1-4e18-9d59-cee591ef98f9.htseq.counts.gz	c962af41-67e1-4e18-9d59-cee591ef98f9_count	Transcriptome Profiling	gene_expression	256521	2016-05-30T18:27:42.487446-05:00	2018-09-06T21:10:41.393019-05:00	70d91568ec764e022755f9ecd80bc071	e00d3b16-35f7-4f78-8691-a96344318212	Gene Expression Quantification	released	RNA-Seq	1	12.0 - 30.0	TCGA-LUAD	ffe738b6-5443-4917-820d-791d2f4b3e4d	released	c962af41-67e1-4e18-9d59-cee591ef98f9_count	https://github.com/NCI-GDC/htseq-cwl	HTSeq - Counts	v1	Solid Tissue Normal	FALSE	TCGA-50-6595	TCGA-50-6595-11A
e226bb40-09aa-4f68-ac77-ab292ef34feb	TXT	open	TCGA-44-2661-11A-01R-1758-07	6d158f35-9847-41fd-814e-9bb63cca955f.htseq.counts.gz	6d158f35-9847-41fd-814e-9bb63cca955f_count	Transcriptome Profiling	gene_expression	252583	2016-05-30T19:01:21.782370-05:00	2018-09-06T21:10:41.393019-05:00	558c3c11d5b086ad75488f1f2c728d5f	e226bb40-09aa-4f68-ac77-ab292ef34feb	Gene Expression Quantification	released	RNA-Seq	1	12.0 - 30.0	TCGA-LUAD	1cd081b0-6e69-437d-936c-498dc993b964	released	6d158f35-9847-41fd-814e-9bb63cca955f_count	https://github.com/NCI-GDC/htseq-cwl	HTSeq - Counts	v1	Solid Tissue Normal	FALSE	TCGA-44-2661	TCGA-44-2661-11A
994d3328-ddec-4af6-9e18-b2097b23da66	TXT	open	TCGA-55-6969-11A-01R-1949-07	11180707-ca2c-4933-bb99-df496bffcafb.htseq.counts.gz	11180707-ca2c-4933-bb99-df496bffcafb_count	Transcriptome Profiling	gene_expression	250220	2016-05-30T18:54:15.836358-05:00	2018-09-06T21:10:41.393019-05:00	43796dd417347588b7de3a003425ddbd	994d3328-ddec-4af6-9e18-b2097b23da66	Gene Expression Quantification	released	RNA-Seq	1	12.0 - 30.0	TCGA-LUAD	1cb67ea4-564f-43d7-8534-b6c3719e44c0	released	11180707-ca2c-4933-bb99-df496bffcafb_count	https://github.com/NCI-GDC/htseq-cwl	HTSeq - Counts	v1	Solid Tissue Normal	FALSE	TCGA-55-6969	TCGA-55-6969-11A
0268d740-37f4-48ad-a9a6-0fad12d26d8e	TXT	open	TCGA-50-5935-11A-01R-1858-07	35a1df51-9daf-4d8b-ab87-222b8562244a.htseq.counts.gz	35a1df51-9daf-4d8b-ab87-222b8562244a_count	Transcriptome Profiling	gene_expression	247965	2016-05-26T21:13:02.187673-05:00	2018-09-06T21:10:41.393019-05:00	16f075c7c35e590ab9a0932ef376d2a0	0268d740-37f4-48ad-a9a6-0fad12d26d8e	Gene Expression Quantification	released	RNA-Seq	1	12.0 - 30.0	TCGA-LUAD	dd2832fb-4ebf-4818-863d-162db15e67b2	released	35a1df51-9daf-4d8b-ab87-222b8562244a_count	https://github.com/NCI-GDC/htseq-cwl	HTSeq - Counts	v1	Solid Tissue Normal	FALSE	TCGA-50-5935	TCGA-50-5935-11A
fe4fc0e0-4068-449f-96b1-5b23861dd652	TXT	open	TCGA-44-5645-11A-01R-1628-07	b92498c2-6e54-4fd0-b752-18932e915381.htseq.counts.gz	b92498c2-6e54-4fd0-b752-18932e915381_count	Transcriptome Profiling	gene_expression	252477	2016-05-29T11:09:05.430739-05:00	2018-09-06T21:10:41.393019-05:00	f9e1c6095434f69a352abf358b005c9e	fe4fc0e0-4068-449f-96b1-5b23861dd652	Gene Expression Quantification	released	RNA-Seq	1	12.0 - 30.0	TCGA-LUAD	b6eec9e6-1304-4fb6-bce9-d34286080a29	released	b92498c2-6e54-4fd0-b752-18932e915381_count	https://github.com/NCI-GDC/htseq-cwl	HTSeq - Counts	v1	Solid Tissue Normal	FALSE	TCGA-44-5645	TCGA-44-5645-11A
04bdcd2b-6dde-4c5a-a0cc-31941f3fe3dd	TXT	open	TCGA-44-2665-11A-01R-1758-07	027ec9be-7e41-44df-8f61-1e5698303eac.htseq.counts.gz	027ec9be-7e41-44df-8f61-1e5698303eac_count	Transcriptome Profiling	gene_expression	254024	2016-05-30T19:06:16.847300-05:00	2018-09-06T21:10:41.393019-05:00	ba24be97b209b47cb29b88e987ae838e	04bdcd2b-6dde-4c5a-a0cc-31941f3fe3dd	Gene Expression Quantification	released	RNA-Seq	1	12.0 - 30.0	TCGA-LUAD	0448bef1-6c19-4e63-b9ff-d15c49ff08e4	released	027ec9be-7e41-44df-8f61-1e5698303eac_count	https://github.com/NCI-GDC/htseq-cwl	HTSeq - Counts	v1	Solid Tissue Normal	FALSE	TCGA-44-2665	TCGA-44-2665-11A
f4f8a40c-ba39-4318-9c7a-b50bea64d98a	TXT	open	TCGA-91-6831-01A-11R-1858-07	34dfd211-d264-4904-b595-a50b36f15c36.htseq.counts.gz	34dfd211-d264-4904-b595-a50b36f15c36_count	Transcriptome Profiling	gene_expression	251215	2016-05-29T11:07:16.945784-05:00	2018-09-06T21:10:41.393019-05:00	ccfffd0e47aa95d811918a1a8f74bd97	f4f8a40c-ba39-4318-9c7a-b50bea64d98a	Gene Expression Quantification	released	RNA-Seq	1	12.0 - 30.0	TCGA-LUAD	fdd7d867-4296-4f28-b966-17e466396363	released	34dfd211-d264-4904-b595-a50b36f15c36_count	https://github.com/NCI-GDC/htseq-cwl	HTSeq - Counts	v1	Primary Tumor	FALSE	TCGA-91-6831	TCGA-91-6831-01A
389a2ad9-e97b-4875-8268-277646d6c578	TXT	open	TCGA-49-6743-01A-11R-1858-07	5f8af729-8993-4b3c-badb-aa1e3ce4e81c.htseq.counts.gz	5f8af729-8993-4b3c-badb-aa1e3ce4e81c_count	Transcriptome Profiling	gene_expression	252133	2016-05-30T18:36:08.722486-05:00	2018-09-06T21:10:41.393019-05:00	1ea1eadf17386e9bb446b966e03877e4	389a2ad9-e97b-4875-8268-277646d6c578	Gene Expression Quantification	released	RNA-Seq	1	12.0 - 30.0	TCGA-LUAD	8bb689cd-c7f1-4466-ae01-8448426980da	released	5f8af729-8993-4b3c-badb-aa1e3ce4e81c_count	https://github.com/NCI-GDC/htseq-cwl	HTSeq - Counts	v1	Primary Tumor	FALSE	TCGA-49-6743	TCGA-49-6743-01A
16717c82-a763-4fa2-8621-3fa445c3e32a	TXT	open	TCGA-55-6975-01A-11R-1949-07	23894b02-d2b5-4a15-a11f-cf81d9d97f53.htseq.counts.gz	23894b02-d2b5-4a15-a11f-cf81d9d97f53_count	Transcriptome Profiling	gene_expression	245995	2016-05-30T18:34:26.307178-05:00	2018-09-06T21:10:41.393019-05:00	b404f9d95d837ae8517bd27d13de8d28	16717c82-a763-4fa2-8621-3fa445c3e32a	Gene Expression Quantification	released	RNA-Seq	1	12.0 - 30.0	TCGA-LUAD	b71c0884-51d6-4e3e-9708-68b902504592	released	23894b02-d2b5-4a15-a11f-cf81d9d97f53_count	https://github.com/NCI-GDC/htseq-cwl	HTSeq - Counts	v1	Primary Tumor	FALSE	TCGA-55-6975	TCGA-55-6975-01A
64c6bb02-e3d5-4762-883a-c041097c6f94	TXT	open	TCGA-55-6982-11A-01R-1949-07	1aeb8b9e-bf79-415d-a8dd-a63c3fbe2bab.htseq.counts.gz	1aeb8b9e-bf79-415d-a8dd-a63c3fbe2bab_count	Transcriptome Profiling	gene_expression	250973	2016-05-29T10:11:37.319797-05:00	2018-09-06T21:10:41.393019-05:00	0fd64f901f649a59a0bab11984046caf	64c6bb02-e3d5-4762-883a-c041097c6f94	Gene Expression Quantification	released	RNA-Seq	1	12.0 - 30.0	TCGA-LUAD	4b3eee18-ed3b-4c91-8d6b-70326d3e30c8	released	1aeb8b9e-bf79-415d-a8dd-a63c3fbe2bab_count	https://github.com/NCI-GDC/htseq-cwl	HTSeq - Counts	v1	Solid Tissue Normal	FALSE	TCGA-55-6982	TCGA-55-6982-11A
496d1828-9028-45f1-8e60-0ff5a741da46	TXT	open	TCGA-55-6979-01A-11R-1949-07	3d936a71-67c1-4173-82a4-12a667bcf3e9.htseq.counts.gz	3d936a71-67c1-4173-82a4-12a667bcf3e9_count	Transcriptome Profiling	gene_expression	250248	2016-05-29T10:33:45.826544-05:00	2018-09-06T21:10:41.393019-05:00	632644aa0af268468f9babc2ebcf9a35	496d1828-9028-45f1-8e60-0ff5a741da46	Gene Expression Quantification	released	RNA-Seq	1	12.0 - 30.0	TCGA-LUAD	89858dfa-8122-4a2a-afa0-5e83f08aa317	released	3d936a71-67c1-4173-82a4-12a667bcf3e9_count	https://github.com/NCI-GDC/htseq-cwl	HTSeq - Counts	v1	Primary Tumor	FALSE	TCGA-55-6979	TCGA-55-6979-01A
39c77c25-a12e-4067-a021-02dca041fa49	TXT	open	TCGA-44-6777-11A-01R-1858-07	0933e6f7-e2ac-4dc0-b34e-4a45109a28b7.htseq.counts.gz	0933e6f7-e2ac-4dc0-b34e-4a45109a28b7_count	Transcriptome Profiling	gene_expression	246576	2016-05-29T10:11:05.747590-05:00	2018-09-06T21:10:41.393019-05:00	971441bd30fb8ad90badf8aace514215	39c77c25-a12e-4067-a021-02dca041fa49	Gene Expression Quantification	released	RNA-Seq	1	12.0 - 30.0	TCGA-LUAD	36c409de-fe46-4d32-9842-ecd5c9c27927	released	0933e6f7-e2ac-4dc0-b34e-4a45109a28b7_count	https://github.com/NCI-GDC/htseq-cwl	HTSeq - Counts	v1	Solid Tissue Normal	FALSE	TCGA-44-6777	TCGA-44-6777-11A
c6d6fa71-848e-4bda-8b11-2f1c1cd5e46d	TXT	open	TCGA-55-6971-11A-01R-1949-07	f4a1e772-2a5e-4c0a-803a-1bdb2b376a47.htseq.counts.gz	f4a1e772-2a5e-4c0a-803a-1bdb2b376a47_count	Transcriptome Profiling	gene_expression	251390	2016-05-29T10:49:57.770109-05:00	2018-09-06T21:10:41.393019-05:00	3d4387d5c1bc744cba9201423ec0a1f4	c6d6fa71-848e-4bda-8b11-2f1c1cd5e46d	Gene Expression Quantification	released	RNA-Seq	1	12.0 - 30.0	TCGA-LUAD	2b063fec-03da-424c-9159-fc0511d21f32	released	f4a1e772-2a5e-4c0a-803a-1bdb2b376a47_count	https://github.com/NCI-GDC/htseq-cwl	HTSeq - Counts	v1	Solid Tissue Normal	FALSE	TCGA-55-6971	TCGA-55-6971-11A
e22a649f-96d1-4f59-b0c8-1cd342cfee22	TXT	open	TCGA-44-6776-01A-11R-1858-07	0d6ef3a0-0ac4-4898-a438-34bbbfde6341.htseq.counts.gz	0d6ef3a0-0ac4-4898-a438-34bbbfde6341_count	Transcriptome Profiling	gene_expression	246018	2016-05-30T18:44:16.800041-05:00	2018-09-06T21:10:41.393019-05:00	92f714566030e36b3b335d216c6b2c70	e22a649f-96d1-4f59-b0c8-1cd342cfee22	Gene Expression Quantification	released	RNA-Seq	1	12.0 - 30.0	TCGA-LUAD	bdbd04de-be0b-4ed6-b417-1abf51451f1d	released	0d6ef3a0-0ac4-4898-a438-34bbbfde6341_count	https://github.com/NCI-GDC/htseq-cwl	HTSeq - Counts	v1	Primary Tumor	FALSE	TCGA-44-6776	TCGA-44-6776-01A
88e053e7-9f23-4fd1-8a6e-c1a13baafdc2	TXT	open	TCGA-44-6144-11A-01R-1755-07	a2e1b373-9085-4f03-8238-c428d229624f.htseq.counts.gz	a2e1b373-9085-4f03-8238-c428d229624f_count	Transcriptome Profiling	gene_expression	249418	2016-05-26T21:21:54.549594-05:00	2018-09-06T21:10:41.393019-05:00	58247e1037d75199b02abf5a18d1e026	88e053e7-9f23-4fd1-8a6e-c1a13baafdc2	Gene Expression Quantification	released	RNA-Seq	1	12.0 - 30.0	TCGA-LUAD	ab97c916-5c45-4075-aa8b-9a46a0fc03be	released	a2e1b373-9085-4f03-8238-c428d229624f_count	https://github.com/NCI-GDC/htseq-cwl	HTSeq - Counts	v1	Solid Tissue Normal	FALSE	TCGA-44-6144	TCGA-44-6144-11A
90136c58-605a-404f-8b1e-162b42488974	TXT	open	TCGA-38-4627-11A-01R-1758-07	d3771f3a-ebc8-4ed6-97f9-6d6003d8470a.htseq.counts.gz	d3771f3a-ebc8-4ed6-97f9-6d6003d8470a_count	Transcriptome Profiling	gene_expression	248797	2016-05-30T18:54:22.957747-05:00	2018-09-06T21:10:41.393019-05:00	66445706bac6464780b795e765108599	90136c58-605a-404f-8b1e-162b42488974	Gene Expression Quantification	released	RNA-Seq	1	12.0 - 30.0	TCGA-LUAD	595cd397-60d7-4c87-a8f5-0b75eaa118a5	released	d3771f3a-ebc8-4ed6-97f9-6d6003d8470a_count	https://github.com/NCI-GDC/htseq-cwl	HTSeq - Counts	v1	Solid Tissue Normal	FALSE	TCGA-38-4627	TCGA-38-4627-11A
66cb1ab2-787a-436e-9826-90211a052dee	TXT	open	TCGA-91-6849-11A-01R-1949-07	2391658d-7cf2-4a09-8dd5-19ea7a37dadf.htseq.counts.gz	2391658d-7cf2-4a09-8dd5-19ea7a37dadf_count	Transcriptome Profiling	gene_expression	249975	2016-05-29T10:54:20.657769-05:00	2018-09-06T21:10:41.393019-05:00	049dfa10158e30f1ae145fce36573f7f	66cb1ab2-787a-436e-9826-90211a052dee	Gene Expression Quantification	released	RNA-Seq	1	12.0 - 30.0	TCGA-LUAD	78c00926-3549-4bc8-b854-5bf767e78888	released	2391658d-7cf2-4a09-8dd5-19ea7a37dadf_count	https://github.com/NCI-GDC/htseq-cwl	HTSeq - Counts	v1	Solid Tissue Normal	FALSE	TCGA-91-6849	TCGA-91-6849-11A
632fff55-afd0-4885-a594-e8a4a2828b5e	TXT	open	TCGA-38-4627-01A-01R-1206-07	12e07df9-d348-41de-9b87-9da18df6934b.htseq.counts.gz	12e07df9-d348-41de-9b87-9da18df6934b_count	Transcriptome Profiling	gene_expression	252790	2016-05-30T18:54:23.522059-05:00	2018-09-06T21:10:41.393019-05:00	08c18fb7927b499dbc4adeedd60d9b43	632fff55-afd0-4885-a594-e8a4a2828b5e	Gene Expression Quantification	released	RNA-Seq	1	12.0 - 30.0	TCGA-LUAD	70583790-4e15-44d4-be03-2c35a3ec9f78	released	12e07df9-d348-41de-9b87-9da18df6934b_count	https://github.com/NCI-GDC/htseq-cwl	HTSeq - Counts	v1	Primary Tumor	FALSE	TCGA-38-4627	TCGA-38-4627-01A
b4a7593d-780a-4fa2-9d75-532a6b9ff129	TXT	open	TCGA-50-5932-01A-11R-1755-07	b8181936-6f76-4eec-a57a-92c4cea4f34f.htseq.counts.gz	b8181936-6f76-4eec-a57a-92c4cea4f34f_count	Transcriptome Profiling	gene_expression	250116	2016-05-30T18:56:55.489390-05:00	2018-09-06T21:10:41.393019-05:00	b9aeabe575957e33666efeb1881d7f1b	b4a7593d-780a-4fa2-9d75-532a6b9ff129	Gene Expression Quantification	released	RNA-Seq	1	12.0 - 30.0	TCGA-LUAD	4dac033a-9d73-4e93-8b29-d2e6be24dee4	released	b8181936-6f76-4eec-a57a-92c4cea4f34f_count	https://github.com/NCI-GDC/htseq-cwl	HTSeq - Counts	v1	Primary Tumor	FALSE	TCGA-50-5932	TCGA-50-5932-01A
f15fbbf3-c67e-4e93-8ca9-c26a77a2e3fe	TXT	open	TCGA-44-6778-01A-11R-1858-07	dd5e64ab-9ed8-4259-9d68-598853fa41f4.htseq.counts.gz	dd5e64ab-9ed8-4259-9d68-598853fa41f4_count	Transcriptome Profiling	gene_expression	253104	2016-05-29T10:35:00.035675-05:00	2018-09-06T21:10:41.393019-05:00	a6e7bc4b67c654508c82a423ae0a3c46	f15fbbf3-c67e-4e93-8ca9-c26a77a2e3fe	Gene Expression Quantification	released	RNA-Seq	1	12.0 - 30.0	TCGA-LUAD	f45a356b-b2a1-4a5e-a6a7-f7639a91977f	released	dd5e64ab-9ed8-4259-9d68-598853fa41f4_count	https://github.com/NCI-GDC/htseq-cwl	HTSeq - Counts	v1	Primary Tumor	FALSE	TCGA-44-6778	TCGA-44-6778-01A
706514bc-d7ab-4b10-b140-56616b2b0bd3	TXT	open	TCGA-38-4632-11A-01R-1755-07	9d7486ce-efb9-413f-80b1-e47971625875.htseq.counts.gz	9d7486ce-efb9-413f-80b1-e47971625875_count	Transcriptome Profiling	gene_expression	244768	2016-05-29T10:46:36.668273-05:00	2018-09-06T21:10:41.393019-05:00	09f2aaa850ab059174b47866fa21fd07	706514bc-d7ab-4b10-b140-56616b2b0bd3	Gene Expression Quantification	released	RNA-Seq	1	12.0 - 30.0	TCGA-LUAD	4688b7c0-c3fc-4749-b1dd-065d3d0aeee8	released	9d7486ce-efb9-413f-80b1-e47971625875_count	https://github.com/NCI-GDC/htseq-cwl	HTSeq - Counts	v1	Solid Tissue Normal	FALSE	TCGA-38-4632	TCGA-38-4632-11A
fbfa116d-eea9-424a-90e3-725a3b8b3d0a	TXT	open	TCGA-55-6985-11A-01R-1949-07	344d2093-8816-4f3b-a38c-cfc7ae7cd6ba.htseq.counts.gz	344d2093-8816-4f3b-a38c-cfc7ae7cd6ba_count	Transcriptome Profiling	gene_expression	257051	2016-05-29T11:13:55.978688-05:00	2018-09-06T21:10:41.393019-05:00	405e2dd05a3d27d3585bbd4e93044fb1	fbfa116d-eea9-424a-90e3-725a3b8b3d0a	Gene Expression Quantification	released	RNA-Seq	1	12.0 - 30.0	TCGA-LUAD	d31b775e-d603-4439-9839-be6667188498	released	344d2093-8816-4f3b-a38c-cfc7ae7cd6ba_count	https://github.com/NCI-GDC/htseq-cwl	HTSeq - Counts	v1	Solid Tissue Normal	FALSE	TCGA-55-6985	TCGA-55-6985-11A
75d88105-fa3f-4b7a-8c6c-005dba41b1b4	TXT	open	TCGA-44-6147-01A-11R-1755-07	9b77c8a1-a670-4011-82d7-bc4cbab06486.htseq.counts.gz	9b77c8a1-a670-4011-82d7-bc4cbab06486_count	Transcriptome Profiling	gene_expression	255060	2016-05-29T10:47:25.129398-05:00	2018-09-06T21:10:41.393019-05:00	c187b2765eeb1632fda9cc42185c5e5a	75d88105-fa3f-4b7a-8c6c-005dba41b1b4	Gene Expression Quantification	released	RNA-Seq	1	12.0 - 30.0	TCGA-LUAD	0da58700-8d44-4186-94ac-c21cb3cd1a3d	released	9b77c8a1-a670-4011-82d7-bc4cbab06486_count	https://github.com/NCI-GDC/htseq-cwl	HTSeq - Counts	v1	Primary Tumor	FALSE	TCGA-44-6147	TCGA-44-6147-01A
c787b215-c402-429d-a484-d9678ec2fcff	TXT	open	TCGA-38-4632-01A-01R-1755-07	ae3d90f2-e69b-4711-8e09-368c732cdc23.htseq.counts.gz	ae3d90f2-e69b-4711-8e09-368c732cdc23_count	Transcriptome Profiling	gene_expression	246101	2016-05-29T10:46:29.662993-05:00	2018-09-06T21:10:41.393019-05:00	2561258f7165ffcec44562edc0c9c525	c787b215-c402-429d-a484-d9678ec2fcff	Gene Expression Quantification	released	RNA-Seq	1	12.0 - 30.0	TCGA-LUAD	722c50c6-0588-4496-bab1-7c149c097a8c	released	ae3d90f2-e69b-4711-8e09-368c732cdc23_count	https://github.com/NCI-GDC/htseq-cwl	HTSeq - Counts	v1	Primary Tumor	FALSE	TCGA-38-4632	TCGA-38-4632-01A
09b4d8e9-c0c7-478f-b6dc-e6552f38a67f	TXT	open	TCGA-38-4625-11A-01R-1758-07	b9010a9a-7ee9-4f57-a1d3-5bba72acb67d.htseq.counts.gz	b9010a9a-7ee9-4f57-a1d3-5bba72acb67d_count	Transcriptome Profiling	gene_expression	253406	2016-05-26T21:12:14.397063-05:00	2018-09-06T21:10:41.393019-05:00	e47028b69edf4617b0854423e60691d3	09b4d8e9-c0c7-478f-b6dc-e6552f38a67f	Gene Expression Quantification	released	RNA-Seq	1	12.0 - 30.0	TCGA-LUAD	b923e89d-ece3-4e37-ac47-3ac9ff35fc09	released	b9010a9a-7ee9-4f57-a1d3-5bba72acb67d_count	https://github.com/NCI-GDC/htseq-cwl	HTSeq - Counts	v1	Solid Tissue Normal	FALSE	TCGA-38-4625	TCGA-38-4625-11A
f5cbece4-ef6e-4c40-a7bf-a82b4ca2d026	TXT	open	TCGA-55-6986-01A-11R-1949-07	cc296619-683f-4339-ab1f-51d567fc678a.htseq.counts.gz	cc296619-683f-4339-ab1f-51d567fc678a_count	Transcriptome Profiling	gene_expression	248539	2016-05-26T21:06:07.103836-05:00	2018-09-06T21:10:41.393019-05:00	0d07b15865f730a15c8ba998f4dcfaac	f5cbece4-ef6e-4c40-a7bf-a82b4ca2d026	Gene Expression Quantification	released	RNA-Seq	1	12.0 - 30.0	TCGA-LUAD	9bcca1bd-d129-4bb4-8ce1-b41ca3991b7b	released	cc296619-683f-4339-ab1f-51d567fc678a_count	https://github.com/NCI-GDC/htseq-cwl	HTSeq - Counts	v1	Primary Tumor	FALSE	TCGA-55-6986	TCGA-55-6986-01A
1208ffe2-983c-4bb3-90dd-4cc8b9918830	TXT	open	TCGA-44-5645-01A-01R-1628-07	c58c1851-be04-4875-96ff-2833bb6af91c.htseq.counts.gz	c58c1851-be04-4875-96ff-2833bb6af91c_count	Transcriptome Profiling	gene_expression	251565	2016-05-29T11:09:06.784532-05:00	2018-09-06T21:10:41.393019-05:00	bf2bce4ce26e3706a947bc1f4e1fafab	1208ffe2-983c-4bb3-90dd-4cc8b9918830	Gene Expression Quantification	released	RNA-Seq	1	12.0 - 30.0	TCGA-LUAD	fc9d1d76-ec98-424c-8a29-a0302dde0af9	released	c58c1851-be04-4875-96ff-2833bb6af91c_count	https://github.com/NCI-GDC/htseq-cwl	HTSeq - Counts	v1	Primary Tumor	FALSE	TCGA-44-5645	TCGA-44-5645-01A
fbe4e6f8-22e7-493e-8573-a8c32e9a2c8e	TXT	open	TCGA-38-4625-01A-01R-1206-07	df096776-c5ad-4f04-a913-02a16f33390a.htseq.counts.gz	df096776-c5ad-4f04-a913-02a16f33390a_count	Transcriptome Profiling	gene_expression	260314	2016-05-26T21:12:13.776060-05:00	2018-09-06T21:10:41.393019-05:00	5761b2bb46a5fd2c06c70bbb83583223	fbe4e6f8-22e7-493e-8573-a8c32e9a2c8e	Gene Expression Quantification	released	RNA-Seq	1	12.0 - 30.0	TCGA-LUAD	a6e20096-8cbe-4e6a-8f9e-c2f7e80be178	released	df096776-c5ad-4f04-a913-02a16f33390a_count	https://github.com/NCI-GDC/htseq-cwl	HTSeq - Counts	v1	Primary Tumor	FALSE	TCGA-38-4625	TCGA-38-4625-01A
0b3ff64c-21f4-4bb5-8751-e9ae1637c1a4	TXT	open	TCGA-50-5939-01A-11R-1628-07	b4661ac5-95c7-450e-8797-b2dbe04ad1ee.htseq.counts.gz	b4661ac5-95c7-450e-8797-b2dbe04ad1ee_count	Transcriptome Profiling	gene_expression	245751	2016-05-26T21:14:19.522083-05:00	2018-09-06T21:10:41.393019-05:00	40e5038c2b6f9e5b4fe1a91b665a5f2b	0b3ff64c-21f4-4bb5-8751-e9ae1637c1a4	Gene Expression Quantification	released	RNA-Seq	1	12.0 - 30.0	TCGA-LUAD	c06e6dee-18f5-4aed-bfcc-3fa491753fbf	released	b4661ac5-95c7-450e-8797-b2dbe04ad1ee_count	https://github.com/NCI-GDC/htseq-cwl	HTSeq - Counts	v1	Primary Tumor	FALSE	TCGA-50-5939	TCGA-50-5939-01A
49b68318-2d19-45b4-abe9-7784cf1b7b07	TXT	open	TCGA-55-6986-11A-01R-1949-07	5d259206-1431-48f8-abc3-3001bab5243d.htseq.counts.gz	5d259206-1431-48f8-abc3-3001bab5243d_count	Transcriptome Profiling	gene_expression	262395	2016-05-26T21:06:06.558985-05:00	2018-09-06T21:10:41.393019-05:00	4372fa63dcc5bd1ffcf8dc240d2ed98c	49b68318-2d19-45b4-abe9-7784cf1b7b07	Gene Expression Quantification	released	RNA-Seq	1	12.0 - 30.0	TCGA-LUAD	0f7057cf-339a-49f8-bf7d-9d31474387de	released	5d259206-1431-48f8-abc3-3001bab5243d_count	https://github.com/NCI-GDC/htseq-cwl	HTSeq - Counts	v1	Solid Tissue Normal	FALSE	TCGA-55-6986	TCGA-55-6986-11A
26748992-7910-4a84-bfbd-9dbd7c28145a	TXT	open	TCGA-49-6745-11A-01R-1858-07	f204f6b8-03fb-4464-922d-de9fffeff9d5.htseq.counts.gz	f204f6b8-03fb-4464-922d-de9fffeff9d5_count	Transcriptome Profiling	gene_expression	249106	2016-05-30T18:32:25.187848-05:00	2018-09-06T21:10:41.393019-05:00	780dd755beeeb70fea30c8ee58ae9c0b	26748992-7910-4a84-bfbd-9dbd7c28145a	Gene Expression Quantification	released	RNA-Seq	1	12.0 - 30.0	TCGA-LUAD	bb4f8071-7cb5-4165-ab98-8572cbd3330b	released	f204f6b8-03fb-4464-922d-de9fffeff9d5_count	https://github.com/NCI-GDC/htseq-cwl	HTSeq - Counts	v1	Solid Tissue Normal	FALSE	TCGA-49-6745	TCGA-49-6745-11A
9bb510ea-af13-42fb-93a1-dba0da1e6f3b	TXT	open	TCGA-44-3396-01A-01R-1206-07	0fca0e34-1499-410a-a5a1-561406245e03.htseq.counts.gz	0fca0e34-1499-410a-a5a1-561406245e03_count	Transcriptome Profiling	gene_expression	260806	2016-05-29T10:15:13.607074-05:00	2018-09-06T21:10:41.393019-05:00	1c16c5b05a73007bd01b4732cc9a04f7	9bb510ea-af13-42fb-93a1-dba0da1e6f3b	Gene Expression Quantification	released	RNA-Seq	1	12.0 - 30.0	TCGA-LUAD	0f131922-a732-4bbf-a7ad-d65c93e8fa5b	released	0fca0e34-1499-410a-a5a1-561406245e03_count	https://github.com/NCI-GDC/htseq-cwl	HTSeq - Counts	v1	Primary Tumor	FALSE	TCGA-44-3396	TCGA-44-3396-01A
e56f6e88-dfd5-4074-9235-7a9a843fe7ae	TXT	open	TCGA-91-6847-01A-11R-1949-07	b0a26c8d-9863-4352-8abe-dde66bdb8e55.htseq.counts.gz	b0a26c8d-9863-4352-8abe-dde66bdb8e55_count	Transcriptome Profiling	gene_expression	254830	2016-05-30T18:30:04.146355-05:00	2018-09-06T21:10:41.393019-05:00	21acb93b18a1e6793519ce6b5e50c724	e56f6e88-dfd5-4074-9235-7a9a843fe7ae	Gene Expression Quantification	released	RNA-Seq	1	12.0 - 30.0	TCGA-LUAD	503b65c3-f766-4588-9c8a-f7155b1af4e1	released	b0a26c8d-9863-4352-8abe-dde66bdb8e55_count	https://github.com/NCI-GDC/htseq-cwl	HTSeq - Counts	v1	Primary Tumor	FALSE	TCGA-91-6847	TCGA-91-6847-01A
fbd13693-6d1a-4e73-a2ae-8d9630ddf688	TXT	open	TCGA-55-6968-11A-01R-1949-07	e2e299f4-252f-4405-8245-2eb707337c26.htseq.counts.gz	e2e299f4-252f-4405-8245-2eb707337c26_count	Transcriptome Profiling	gene_expression	247882	2016-05-30T18:28:17.209649-05:00	2018-09-06T21:10:41.393019-05:00	36cbaa26d494a1d3e863bcb12e6c863b	fbd13693-6d1a-4e73-a2ae-8d9630ddf688	Gene Expression Quantification	released	RNA-Seq	1	12.0 - 30.0	TCGA-LUAD	9c504729-a357-4264-9c1e-439e30c16db0	released	e2e299f4-252f-4405-8245-2eb707337c26_count	https://github.com/NCI-GDC/htseq-cwl	HTSeq - Counts	v1	Solid Tissue Normal	FALSE	TCGA-55-6968	TCGA-55-6968-11A
c633478b-7197-4321-b8ab-494ce94d821f	TXT	open	TCGA-50-5936-11A-01R-1628-07	12c4510a-fbad-4bff-97b5-846d4da395bd.htseq.counts.gz	12c4510a-fbad-4bff-97b5-846d4da395bd_count	Transcriptome Profiling	gene_expression	247852	2016-05-30T18:59:01.688430-05:00	2018-09-06T21:10:41.393019-05:00	0fd618efb59a39d9e0df13fdd18256f0	c633478b-7197-4321-b8ab-494ce94d821f	Gene Expression Quantification	released	RNA-Seq	1	12.0 - 30.0	TCGA-LUAD	1d4aadb0-2429-4579-81e9-e8c59fe159bf	released	12c4510a-fbad-4bff-97b5-846d4da395bd_count	https://github.com/NCI-GDC/htseq-cwl	HTSeq - Counts	v1	Solid Tissue Normal	FALSE	TCGA-50-5936	TCGA-50-5936-11A
e2042175-b2ed-44d4-b143-e79ffe26afef	TXT	open	TCGA-50-5931-11A-01R-1858-07	dfbd7fa2-381f-4d52-a997-8e9ec71f760f.htseq.counts.gz	dfbd7fa2-381f-4d52-a997-8e9ec71f760f_count	Transcriptome Profiling	gene_expression	247460	2016-05-26T21:14:25.124315-05:00	2018-09-06T21:10:41.393019-05:00	e67a95d32623be049afa72ace470d505	e2042175-b2ed-44d4-b143-e79ffe26afef	Gene Expression Quantification	released	RNA-Seq	1	12.0 - 30.0	TCGA-LUAD	e994b92d-38b2-4370-8f53-bc3996fcb68b	released	dfbd7fa2-381f-4d52-a997-8e9ec71f760f_count	https://github.com/NCI-GDC/htseq-cwl	HTSeq - Counts	v1	Solid Tissue Normal	FALSE	TCGA-50-5931	TCGA-50-5931-11A
aafa370d-14a8-49be-a997-3c82b707ac87	TXT	open	TCGA-44-6146-01A-11R-A278-07	394ef2d0-7bc0-444a-86d3-8f32385c2494.htseq.counts.gz	394ef2d0-7bc0-444a-86d3-8f32385c2494_count	Transcriptome Profiling	gene_expression	248531	2016-05-26T21:11:07.547889-05:00	2018-09-06T21:10:41.393019-05:00	1273de5c4399e5b005be5acc460f7e94	aafa370d-14a8-49be-a997-3c82b707ac87	Gene Expression Quantification	released	RNA-Seq	1	12.0 - 30.0	TCGA-LUAD	a1aff6b4-24d2-49cd-853b-e3e933946b93	released	394ef2d0-7bc0-444a-86d3-8f32385c2494_count	https://github.com/NCI-GDC/htseq-cwl	HTSeq - Counts	v1	Primary Tumor	FALSE	TCGA-44-6146	TCGA-44-6146-01A
710d7a49-c41b-43ed-8deb-0bda0c1e1653	TXT	open	TCGA-55-6983-11A-01R-1949-07	52cf2038-62b5-4c57-b5b5-3f06c48a5f26.htseq.counts.gz	52cf2038-62b5-4c57-b5b5-3f06c48a5f26_count	Transcriptome Profiling	gene_expression	247273	2016-05-29T10:30:03.896050-05:00	2018-09-06T21:10:41.393019-05:00	6db41d5f7bbe0214c2cab397d5ca33b3	710d7a49-c41b-43ed-8deb-0bda0c1e1653	Gene Expression Quantification	released	RNA-Seq	1	12.0 - 30.0	TCGA-LUAD	94554d57-75f7-4436-a50b-98557ef515f1	released	52cf2038-62b5-4c57-b5b5-3f06c48a5f26_count	https://github.com/NCI-GDC/htseq-cwl	HTSeq - Counts	v1	Solid Tissue Normal	FALSE	TCGA-55-6983	TCGA-55-6983-11A
10140ed6-2634-46e7-9e8d-7912a8ba794b	TXT	open	TCGA-55-6978-11A-01R-1949-07	a32bbdca-c79c-49b9-bac7-8b442e4b47e0.htseq.counts.gz	a32bbdca-c79c-49b9-bac7-8b442e4b47e0_count	Transcriptome Profiling	gene_expression	250309	2016-05-29T10:27:47.712881-05:00	2018-09-06T21:10:41.393019-05:00	692797a8808418e903a230a9874c6768	10140ed6-2634-46e7-9e8d-7912a8ba794b	Gene Expression Quantification	released	RNA-Seq	1	12.0 - 30.0	TCGA-LUAD	3a12a86c-5163-49d4-800f-bde600c8c1d5	released	a32bbdca-c79c-49b9-bac7-8b442e4b47e0_count	https://github.com/NCI-GDC/htseq-cwl	HTSeq - Counts	v1	Solid Tissue Normal	FALSE	TCGA-55-6978	TCGA-55-6978-11A
831ca509-b561-4bf0-a536-2749afe66422	TXT	open	TCGA-91-6836-11A-01R-1858-07	ef9244df-399a-4646-b777-a25766835c8d.htseq.counts.gz	ef9244df-399a-4646-b777-a25766835c8d_count	Transcriptome Profiling	gene_expression	248778	2016-05-26T21:10:38.928846-05:00	2018-09-06T21:10:41.393019-05:00	0fe440151f85d5fa080d414a9521f6e2	831ca509-b561-4bf0-a536-2749afe66422	Gene Expression Quantification	released	RNA-Seq	1	12.0 - 30.0	TCGA-LUAD	066cc8d5-3bdc-4aa1-b494-6956651d51f5	released	ef9244df-399a-4646-b777-a25766835c8d_count	https://github.com/NCI-GDC/htseq-cwl	HTSeq - Counts	v1	Solid Tissue Normal	FALSE	TCGA-91-6836	TCGA-91-6836-11A
1344f507-e11a-4eab-80f2-82e20a4e8ede	TXT	open	TCGA-44-2657-01A-01R-1107-07	74a288d5-7bb7-414b-b422-f9a4548a8433.htseq.counts.gz	74a288d5-7bb7-414b-b422-f9a4548a8433_count	Transcriptome Profiling	gene_expression	252053	2016-05-30T19:01:56.616417-05:00	2018-09-06T21:10:41.393019-05:00	30168df32eb8013415055b96a68d49db	1344f507-e11a-4eab-80f2-82e20a4e8ede	Gene Expression Quantification	released	RNA-Seq	1	12.0 - 30.0	TCGA-LUAD	0365517a-7b92-43a8-beaa-b9fec38126e4	released	74a288d5-7bb7-414b-b422-f9a4548a8433_count	https://github.com/NCI-GDC/htseq-cwl	HTSeq - Counts	v1	Primary Tumor	FALSE	TCGA-44-2657	TCGA-44-2657-01A
6128062b-57a9-42dc-9a4a-c95b48103736	TXT	open	TCGA-91-6829-11A-01R-1858-07	3fbc019c-2a61-48f6-9c6d-00823297ae53.htseq.counts.gz	3fbc019c-2a61-48f6-9c6d-00823297ae53_count	Transcriptome Profiling	gene_expression	251446	2016-05-26T21:15:11.389572-05:00	2018-09-06T21:10:41.393019-05:00	ad7e75e4a1315469565b947e1d66b261	6128062b-57a9-42dc-9a4a-c95b48103736	Gene Expression Quantification	released	RNA-Seq	1	12.0 - 30.0	TCGA-LUAD	66af8da8-c500-44c4-9880-d5921cbdeb0e	released	3fbc019c-2a61-48f6-9c6d-00823297ae53_count	https://github.com/NCI-GDC/htseq-cwl	HTSeq - Counts	v1	Solid Tissue Normal	FALSE	TCGA-91-6829	TCGA-91-6829-11A
2bee31d3-c2d7-4ae7-b246-c82dd6eee91f	TXT	open	TCGA-44-6776-11A-01R-1858-07	dfb56742-389a-4c33-992e-8b3014c882e0.htseq.counts.gz	dfb56742-389a-4c33-992e-8b3014c882e0_count	Transcriptome Profiling	gene_expression	248990	2016-05-30T18:44:16.223513-05:00	2018-09-06T21:10:41.393019-05:00	10306c6b2dd08510b03d5387d7e88b70	2bee31d3-c2d7-4ae7-b246-c82dd6eee91f	Gene Expression Quantification	released	RNA-Seq	1	12.0 - 30.0	TCGA-LUAD	b6c73e13-8cfb-46ce-97e0-2aae421e2013	released	dfb56742-389a-4c33-992e-8b3014c882e0_count	https://github.com/NCI-GDC/htseq-cwl	HTSeq - Counts	v1	Solid Tissue Normal	FALSE	TCGA-44-6776	TCGA-44-6776-11A
9a721d29-4649-4098-bd37-72863a36a15f	TXT	open	TCGA-55-6975-11A-01R-1949-07	39a4a8d9-029d-46bb-8d3e-6edd0d4d1191.htseq.counts.gz	39a4a8d9-029d-46bb-8d3e-6edd0d4d1191_count	Transcriptome Profiling	gene_expression	247205	2016-05-30T18:34:25.807525-05:00	2018-09-06T21:10:41.393019-05:00	185ce3c01768ac1ec7073e0a5de6f975	9a721d29-4649-4098-bd37-72863a36a15f	Gene Expression Quantification	released	RNA-Seq	1	12.0 - 30.0	TCGA-LUAD	d29765ee-be67-43b4-aab3-c52406a9c917	released	39a4a8d9-029d-46bb-8d3e-6edd0d4d1191_count	https://github.com/NCI-GDC/htseq-cwl	HTSeq - Counts	v1	Solid Tissue Normal	FALSE	TCGA-55-6975	TCGA-55-6975-11A
a3eec6fd-74e2-4683-8d54-e72e628fabf6	TXT	open	TCGA-44-6145-11A-01R-1858-07	cd1665ab-4599-49b1-9d3d-b106dfbf8bcc.htseq.counts.gz	cd1665ab-4599-49b1-9d3d-b106dfbf8bcc_count	Transcriptome Profiling	gene_expression	249427	2016-05-29T10:37:22.038402-05:00	2018-09-06T21:10:41.393019-05:00	69168c24bd36c1f497583c2e5f6d6659	a3eec6fd-74e2-4683-8d54-e72e628fabf6	Gene Expression Quantification	released	RNA-Seq	1	12.0 - 30.0	TCGA-LUAD	6ae090fb-cd04-425f-a3cc-dc3e4f3494a6	released	cd1665ab-4599-49b1-9d3d-b106dfbf8bcc_count	https://github.com/NCI-GDC/htseq-cwl	HTSeq - Counts	v1	Solid Tissue Normal	FALSE	TCGA-44-6145	TCGA-44-6145-11A
b5569562-7bd4-4220-9a08-ca32e963754d	TXT	open	TCGA-49-6761-01A-31R-1949-07	b600c271-e77b-4752-af07-08dd817ea601.htseq.counts.gz	b600c271-e77b-4752-af07-08dd817ea601_count	Transcriptome Profiling	gene_expression	247982	2016-05-29T10:25:22.443143-05:00	2018-09-06T21:10:41.393019-05:00	4a5456b1d26f44e2d5a2659bff66fc67	b5569562-7bd4-4220-9a08-ca32e963754d	Gene Expression Quantification	released	RNA-Seq	1	12.0 - 30.0	TCGA-LUAD	f1257fd8-fa2b-4122-a7fd-cd867ca2d64b	released	b600c271-e77b-4752-af07-08dd817ea601_count	https://github.com/NCI-GDC/htseq-cwl	HTSeq - Counts	v1	Primary Tumor	FALSE	TCGA-49-6761	TCGA-49-6761-01A
088ff77c-c639-444f-a925-0757cb97d189	TXT	open	TCGA-55-6970-01A-11R-1949-07	f4eb983f-0eee-4c8a-9f72-b5382957d377.htseq.counts.gz	f4eb983f-0eee-4c8a-9f72-b5382957d377_count	Transcriptome Profiling	gene_expression	253856	2016-05-30T18:25:01.693742-05:00	2018-09-06T21:10:41.393019-05:00	a9281410fc298b301922abd6d1bcd8cf	088ff77c-c639-444f-a925-0757cb97d189	Gene Expression Quantification	released	RNA-Seq	1	12.0 - 30.0	TCGA-LUAD	0e7f56b5-a145-4160-a86a-0c06e741c793	released	f4eb983f-0eee-4c8a-9f72-b5382957d377_count	https://github.com/NCI-GDC/htseq-cwl	HTSeq - Counts	v1	Primary Tumor	FALSE	TCGA-55-6970	TCGA-55-6970-01A
c425fe06-a1c3-4b2c-a09e-4f2981770196	TXT	open	TCGA-49-4490-11A-01R-1858-07	708e035d-e38b-4969-a96e-f7c324b3f8a3.htseq.counts.gz	708e035d-e38b-4969-a96e-f7c324b3f8a3_count	Transcriptome Profiling	gene_expression	247386	2016-05-30T18:16:49.857572-05:00	2018-09-06T21:10:41.393019-05:00	22e4c7a773d4bd27268f777a2b6858e2	c425fe06-a1c3-4b2c-a09e-4f2981770196	Gene Expression Quantification	released	RNA-Seq	1	12.0 - 30.0	TCGA-LUAD	45054de6-e88e-429f-adcd-844bf9dfee05	released	708e035d-e38b-4969-a96e-f7c324b3f8a3_count	https://github.com/NCI-GDC/htseq-cwl	HTSeq - Counts	v1	Solid Tissue Normal	FALSE	TCGA-49-4490	TCGA-49-4490-11A
d9b960cf-468d-4885-a7a0-e390717a68d9	TXT	open	TCGA-50-5933-01A-11R-1755-07	e77ea9a5-0b4f-466a-86b3-378d756dea57.htseq.counts.gz	e77ea9a5-0b4f-466a-86b3-378d756dea57_count	Transcriptome Profiling	gene_expression	249048	2016-05-30T18:23:44.691195-05:00	2018-09-06T21:10:41.393019-05:00	806ed6a20ca03f07541901ff5986f819	d9b960cf-468d-4885-a7a0-e390717a68d9	Gene Expression Quantification	released	RNA-Seq	1	12.0 - 30.0	TCGA-LUAD	69fa3e93-d231-43aa-9441-2ef87f13b7b2	released	e77ea9a5-0b4f-466a-86b3-378d756dea57_count	https://github.com/NCI-GDC/htseq-cwl	HTSeq - Counts	v1	Primary Tumor	FALSE	TCGA-50-5933	TCGA-50-5933-01A
5e856178-7b94-4999-9e16-3f72af4fad2b	TXT	open	TCGA-44-2655-11A-01R-1758-07	ae538e05-955a-4e79-b42d-85ae4fdb50c4.htseq.counts.gz	ae538e05-955a-4e79-b42d-85ae4fdb50c4_count	Transcriptome Profiling	gene_expression	255588	2016-05-26T21:08:50.834290-05:00	2018-09-06T21:10:41.393019-05:00	c7c89ba3eac68beb269d8b277c718853	5e856178-7b94-4999-9e16-3f72af4fad2b	Gene Expression Quantification	released	RNA-Seq	1	12.0 - 30.0	TCGA-LUAD	e5b1f809-28d3-4a86-aed3-f8aef6a83cb5	released	ae538e05-955a-4e79-b42d-85ae4fdb50c4_count	https://github.com/NCI-GDC/htseq-cwl	HTSeq - Counts	v1	Solid Tissue Normal	FALSE	TCGA-44-2655	TCGA-44-2655-11A
90c51069-913b-40b7-aa49-87d7c83f8da0	TXT	open	TCGA-91-6835-01A-11R-1858-07	69ad4bfb-b94a-4b72-986b-d6a73febd362.htseq.counts.gz	69ad4bfb-b94a-4b72-986b-d6a73febd362_count	Transcriptome Profiling	gene_expression	255476	2016-05-29T10:07:58.662899-05:00	2018-09-06T21:10:41.393019-05:00	233ba0c04774bd28fa3d7c7e76a89737	90c51069-913b-40b7-aa49-87d7c83f8da0	Gene Expression Quantification	released	RNA-Seq	1	12.0 - 30.0	TCGA-LUAD	792d4de0-d14c-43c7-9d8d-1a4cc2da851e	released	69ad4bfb-b94a-4b72-986b-d6a73febd362_count	https://github.com/NCI-GDC/htseq-cwl	HTSeq - Counts	v1	Primary Tumor	FALSE	TCGA-91-6835	TCGA-91-6835-01A
9cd9f2a1-ae09-4c5e-a832-e3c77034443b	TXT	open	TCGA-44-3396-11A-01R-1758-07	69f590a7-8b7d-46e4-9a90-a1a3d59771f9.htseq.counts.gz	69f590a7-8b7d-46e4-9a90-a1a3d59771f9_count	Transcriptome Profiling	gene_expression	257146	2016-05-29T10:15:12.166964-05:00	2018-09-06T21:10:41.393019-05:00	fc3729f37990df6d94dc5ca440525590	9cd9f2a1-ae09-4c5e-a832-e3c77034443b	Gene Expression Quantification	released	RNA-Seq	1	12.0 - 30.0	TCGA-LUAD	f9bf625b-bb55-49ae-94dd-f14bcb30eada	released	69f590a7-8b7d-46e4-9a90-a1a3d59771f9_count	https://github.com/NCI-GDC/htseq-cwl	HTSeq - Counts	v1	Solid Tissue Normal	FALSE	TCGA-44-3396	TCGA-44-3396-11A
505fb071-db55-4ecb-b431-68e6bc0eb3e8	TXT	open	TCGA-44-6147-01A-11R-A278-07	3b7cb73f-d672-4d68-b28a-e01b82096ba4.htseq.counts.gz	3b7cb73f-d672-4d68-b28a-e01b82096ba4_count	Transcriptome Profiling	gene_expression	261415	2016-05-29T10:47:24.551188-05:00	2018-09-06T21:10:41.393019-05:00	4c39dcaa21153554a0a309c547495901	505fb071-db55-4ecb-b431-68e6bc0eb3e8	Gene Expression Quantification	released	RNA-Seq	1	12.0 - 30.0	TCGA-LUAD	6b94eed3-86f1-46a3-9a57-88912b5cd3bd	released	3b7cb73f-d672-4d68-b28a-e01b82096ba4_count	https://github.com/NCI-GDC/htseq-cwl	HTSeq - Counts	v1	Primary Tumor	FALSE	TCGA-44-6147	TCGA-44-6147-01A
2c76067c-f690-4d7c-b5fd-69b9facb0d21	TXT	open	TCGA-49-6744-01A-11R-1858-07	9c21f775-3dff-43de-9a05-b25480cbe815.htseq.counts.gz	9c21f775-3dff-43de-9a05-b25480cbe815_count	Transcriptome Profiling	gene_expression	253173	2016-05-26T21:15:38.000411-05:00	2018-09-06T21:10:41.393019-05:00	2a39d882bb761f14c0acd88f6d525414	2c76067c-f690-4d7c-b5fd-69b9facb0d21	Gene Expression Quantification	released	RNA-Seq	1	12.0 - 30.0	TCGA-LUAD	85e4c77a-6ac0-4584-85a7-61167fba82c3	released	9c21f775-3dff-43de-9a05-b25480cbe815_count	https://github.com/NCI-GDC/htseq-cwl	HTSeq - Counts	v1	Primary Tumor	FALSE	TCGA-49-6744	TCGA-49-6744-01A
75b2c8cb-edf2-4193-ad19-c818b2793c0b	TXT	open	TCGA-73-4676-11A-01R-1755-07	fdeae242-eff2-405a-bf00-1af2a6987479.htseq.counts.gz	fdeae242-eff2-405a-bf00-1af2a6987479_count	Transcriptome Profiling	gene_expression	244065	2016-05-26T21:17:41.084264-05:00	2018-09-06T21:10:41.393019-05:00	7220a1d7590a84702bc1c7b4d6a68e01	75b2c8cb-edf2-4193-ad19-c818b2793c0b	Gene Expression Quantification	released	RNA-Seq	1	12.0 - 30.0	TCGA-LUAD	44accabd-6e6f-445f-b428-59c0e3999a2e	released	fdeae242-eff2-405a-bf00-1af2a6987479_count	https://github.com/NCI-GDC/htseq-cwl	HTSeq - Counts	v1	Solid Tissue Normal	FALSE	TCGA-73-4676	TCGA-73-4676-11A
f71781db-e0dc-41d6-beb4-5efe81447a29	TXT	open	TCGA-44-2668-11A-01R-1758-07	cecac722-4fe4-45e5-85e9-a4ce24c567b2.htseq.counts.gz	cecac722-4fe4-45e5-85e9-a4ce24c567b2_count	Transcriptome Profiling	gene_expression	251912	2016-05-29T11:02:51.640734-05:00	2018-09-06T21:10:41.393019-05:00	02ac161b9618d182eb3519aa4a151ac5	f71781db-e0dc-41d6-beb4-5efe81447a29	Gene Expression Quantification	released	RNA-Seq	1	12.0 - 30.0	TCGA-LUAD	4fb70981-3452-470f-b1b3-be7b72155aac	released	cecac722-4fe4-45e5-85e9-a4ce24c567b2_count	https://github.com/NCI-GDC/htseq-cwl	HTSeq - Counts	v1	Solid Tissue Normal	FALSE	TCGA-44-2668	TCGA-44-2668-11A
03b4cdde-2bbf-478d-b751-8fb592e99667	TXT	open	TCGA-44-6147-11A-01R-1858-07	35a20ef3-e207-45f7-9854-6b565e8f3849.htseq.counts.gz	35a20ef3-e207-45f7-9854-6b565e8f3849_count	Transcriptome Profiling	gene_expression	252112	2016-05-29T10:47:23.934710-05:00	2018-09-06T21:10:41.393019-05:00	38ea41f68701ff6175a49e48a4c0be8b	03b4cdde-2bbf-478d-b751-8fb592e99667	Gene Expression Quantification	released	RNA-Seq	1	12.0 - 30.0	TCGA-LUAD	b6b5cf98-8ff6-42c1-bce7-33dd3c53bc04	released	35a20ef3-e207-45f7-9854-6b565e8f3849_count	https://github.com/NCI-GDC/htseq-cwl	HTSeq - Counts	v1	Solid Tissue Normal	FALSE	TCGA-44-6147	TCGA-44-6147-11A
b5c7017d-e865-4448-aab2-7db96d34ad0f	TXT	open	TCGA-50-5930-11A-01R-1755-07	ba4cd1d6-7233-400e-9b74-11c0561193bf.htseq.counts.gz	ba4cd1d6-7233-400e-9b74-11c0561193bf_count	Transcriptome Profiling	gene_expression	245767	2016-05-29T10:11:58.215451-05:00	2018-09-06T21:10:41.393019-05:00	0976bff361dc94622f9a9c84ab932ac9	b5c7017d-e865-4448-aab2-7db96d34ad0f	Gene Expression Quantification	released	RNA-Seq	1	12.0 - 30.0	TCGA-LUAD	c348c667-8bbc-49d1-ad61-509012c47215	released	ba4cd1d6-7233-400e-9b74-11c0561193bf_count	https://github.com/NCI-GDC/htseq-cwl	HTSeq - Counts	v1	Solid Tissue Normal	FALSE	TCGA-50-5930	TCGA-50-5930-11A
43bc7438-a594-4913-92c4-91d0a9bacb0d	TXT	open	TCGA-55-6983-01A-11R-1949-07	abc09f7c-a791-4b91-9efa-b6d716811004.htseq.counts.gz	abc09f7c-a791-4b91-9efa-b6d716811004_count	Transcriptome Profiling	gene_expression	257406	2016-05-29T10:30:04.914851-05:00	2018-09-06T21:10:41.393019-05:00	b299ad5d7f2554f746adc94f9cc038ea	43bc7438-a594-4913-92c4-91d0a9bacb0d	Gene Expression Quantification	released	RNA-Seq	1	12.0 - 30.0	TCGA-LUAD	257809cc-9daa-4c47-952e-e810ea53c4db	released	abc09f7c-a791-4b91-9efa-b6d716811004_count	https://github.com/NCI-GDC/htseq-cwl	HTSeq - Counts	v1	Primary Tumor	FALSE	TCGA-55-6983	TCGA-55-6983-01A
a4de9081-57bf-410c-8db5-bd9a2060abb0	TXT	open	TCGA-44-5645-01A-01R-A278-07	0b07a88f-e7c7-4fcc-8b95-6a7674c436cc.htseq.counts.gz	0b07a88f-e7c7-4fcc-8b95-6a7674c436cc_count	Transcriptome Profiling	gene_expression	260412	2016-05-29T11:09:06.115411-05:00	2018-09-06T21:10:41.393019-05:00	0784ac0049426420925d1f5afbfeb063	a4de9081-57bf-410c-8db5-bd9a2060abb0	Gene Expression Quantification	released	RNA-Seq	1	12.0 - 30.0	TCGA-LUAD	8ecaa4aa-a136-4387-bca3-e362b22e79db	released	0b07a88f-e7c7-4fcc-8b95-6a7674c436cc_count	https://github.com/NCI-GDC/htseq-cwl	HTSeq - Counts	v1	Primary Tumor	FALSE	TCGA-44-5645	TCGA-44-5645-01A
dc02de08-0bd3-479b-8db7-bf5735d3b320	TXT	open	TCGA-55-6984-11A-01R-1949-07	b580063a-0bcc-4816-b8ec-310890b995a5.htseq.counts.gz	b580063a-0bcc-4816-b8ec-310890b995a5_count	Transcriptome Profiling	gene_expression	256386	2016-05-30T18:59:39.136254-05:00	2018-09-06T21:10:41.393019-05:00	0568d1470f72ba691eb2f0d7cfc34adb	dc02de08-0bd3-479b-8db7-bf5735d3b320	Gene Expression Quantification	released	RNA-Seq	1	12.0 - 30.0	TCGA-LUAD	1b1552a9-7a3d-4855-85c5-8857b7bbda8d	released	b580063a-0bcc-4816-b8ec-310890b995a5_count	https://github.com/NCI-GDC/htseq-cwl	HTSeq - Counts	v1	Solid Tissue Normal	FALSE	TCGA-55-6984	TCGA-55-6984-11A
800ae507-ede3-4a23-a8b0-ad96ac7be953	TXT	open	TCGA-50-5931-01A-11R-1755-07	4cdd597f-ca43-4545-b84e-e5854c8a63c2.htseq.counts.gz	4cdd597f-ca43-4545-b84e-e5854c8a63c2_count	Transcriptome Profiling	gene_expression	251865	2016-05-26T21:14:25.690371-05:00	2018-09-06T21:10:41.393019-05:00	325ee4934a45a1317d9c6b7d7d0b75fe	800ae507-ede3-4a23-a8b0-ad96ac7be953	Gene Expression Quantification	released	RNA-Seq	1	12.0 - 30.0	TCGA-LUAD	eaf487f7-8b3e-48ab-8663-5d85b1d8f953	released	4cdd597f-ca43-4545-b84e-e5854c8a63c2_count	https://github.com/NCI-GDC/htseq-cwl	HTSeq - Counts	v1	Primary Tumor	FALSE	TCGA-50-5931	TCGA-50-5931-01A
6ce37153-d523-437a-ac96-c098a0c9eb60	TXT	open	TCGA-44-2662-11A-01R-1758-07	783a2365-c4a2-4db4-ab14-d52e603d8230.htseq.counts.gz	783a2365-c4a2-4db4-ab14-d52e603d8230_count	Transcriptome Profiling	gene_expression	252417	2016-05-30T18:49:22.290687-05:00	2018-09-06T21:10:41.393019-05:00	e4372edbd7743aca9f18930a1f29fdbb	6ce37153-d523-437a-ac96-c098a0c9eb60	Gene Expression Quantification	released	RNA-Seq	1	12.0 - 30.0	TCGA-LUAD	c2c34a15-aebd-4f41-b15b-34eef531cee3	released	783a2365-c4a2-4db4-ab14-d52e603d8230_count	https://github.com/NCI-GDC/htseq-cwl	HTSeq - Counts	v1	Solid Tissue Normal	FALSE	TCGA-44-2662	TCGA-44-2662-11A
a9a74c2f-e641-4235-96bb-05a10646275d	TXT	open	TCGA-49-6761-11A-01R-1949-07	d179f9d5-0b8c-459e-9f47-271b25887c3c.htseq.counts.gz	d179f9d5-0b8c-459e-9f47-271b25887c3c_count	Transcriptome Profiling	gene_expression	245566	2016-05-29T10:25:21.916951-05:00	2018-09-06T21:10:41.393019-05:00	7929c1a40839db1911285c714ed42f30	a9a74c2f-e641-4235-96bb-05a10646275d	Gene Expression Quantification	released	RNA-Seq	1	12.0 - 30.0	TCGA-LUAD	c9d9f2fb-ed84-4b33-b1cf-f09c75eb49e3	released	d179f9d5-0b8c-459e-9f47-271b25887c3c_count	https://github.com/NCI-GDC/htseq-cwl	HTSeq - Counts	v1	Solid Tissue Normal	FALSE	TCGA-49-6761	TCGA-49-6761-11A
c56b4ece-fc5c-4c53-a4f1-477537b33c8a	TXT	open	TCGA-49-6744-11A-01R-1858-07	fde67178-6278-4872-a2c4-cfa32f71fdbe.htseq.counts.gz	fde67178-6278-4872-a2c4-cfa32f71fdbe_count	Transcriptome Profiling	gene_expression	249910	2016-05-26T21:15:37.435412-05:00	2018-09-06T21:10:41.393019-05:00	e01c06dc814b6c9744d2dbf1d21f8447	c56b4ece-fc5c-4c53-a4f1-477537b33c8a	Gene Expression Quantification	released	RNA-Seq	1	12.0 - 30.0	TCGA-LUAD	0f876866-74f0-42db-987c-07f1b5b3b797	released	fde67178-6278-4872-a2c4-cfa32f71fdbe_count	https://github.com/NCI-GDC/htseq-cwl	HTSeq - Counts	v1	Solid Tissue Normal	FALSE	TCGA-49-6744	TCGA-49-6744-11A
092c1a6f-018a-4acf-8a42-2b0b2944d9e8	TXT	open	TCGA-44-2662-01A-01R-0946-07	1dc8075b-ed0c-471f-8947-967d23ff686b.htseq.counts.gz	1dc8075b-ed0c-471f-8947-967d23ff686b_count	Transcriptome Profiling	gene_expression	256516	2016-05-30T18:49:20.608239-05:00	2018-09-06T21:10:41.393019-05:00	f7e8cf47789c33d94d44ecf649923349	092c1a6f-018a-4acf-8a42-2b0b2944d9e8	Gene Expression Quantification	released	RNA-Seq	1	12.0 - 30.0	TCGA-LUAD	804902d1-0576-4552-ba8a-b32c1a21b774	released	1dc8075b-ed0c-471f-8947-967d23ff686b_count	https://github.com/NCI-GDC/htseq-cwl	HTSeq - Counts	v1	Primary Tumor	FALSE	TCGA-44-2662	TCGA-44-2662-01A
4b1bfa22-7b9a-4726-a92d-092c0a8e7afa	TXT	open	TCGA-49-6742-11A-01R-1858-07	1363db56-5cfb-4f87-a485-9d2978a5ad58.htseq.counts.gz	1363db56-5cfb-4f87-a485-9d2978a5ad58_count	Transcriptome Profiling	gene_expression	249752	2016-05-26T21:21:41.176510-05:00	2018-09-06T21:10:41.393019-05:00	2ab89459653dfe607374721de3bf8c93	4b1bfa22-7b9a-4726-a92d-092c0a8e7afa	Gene Expression Quantification	released	RNA-Seq	1	12.0 - 30.0	TCGA-LUAD	64a5e857-fd4e-4dc5-9393-28ec5e883797	released	1363db56-5cfb-4f87-a485-9d2978a5ad58_count	https://github.com/NCI-GDC/htseq-cwl	HTSeq - Counts	v1	Solid Tissue Normal	FALSE	TCGA-49-6742	TCGA-49-6742-11A
b65c6b1a-01ca-4fe2-8ba7-e9db8447a81a	TXT	open	TCGA-55-6984-01A-11R-1949-07	a506e085-33bc-432c-bffc-5dd858bcfb3f.htseq.counts.gz	a506e085-33bc-432c-bffc-5dd858bcfb3f_count	Transcriptome Profiling	gene_expression	247297	2016-05-30T18:59:38.355638-05:00	2018-09-06T21:10:41.393019-05:00	33f57342890da82fde58065deeb3d9eb	b65c6b1a-01ca-4fe2-8ba7-e9db8447a81a	Gene Expression Quantification	released	RNA-Seq	1	12.0 - 30.0	TCGA-LUAD	cc3a7d3b-1a7d-4f2d-a64d-63606f930eab	released	a506e085-33bc-432c-bffc-5dd858bcfb3f_count	https://github.com/NCI-GDC/htseq-cwl	HTSeq - Counts	v1	Primary Tumor	FALSE	TCGA-55-6984	TCGA-55-6984-01A
9a5b78bb-cfd6-4f43-853d-258a6fdef278	TXT	open	TCGA-44-2668-01A-01R-0946-07	f8d249c9-6792-47a0-a553-607ca1c76436.htseq.counts.gz	f8d249c9-6792-47a0-a553-607ca1c76436_count	Transcriptome Profiling	gene_expression	257785	2016-05-29T11:02:50.357659-05:00	2018-09-06T21:10:41.393019-05:00	308a47bbde8428a4db732db6984bbc70	9a5b78bb-cfd6-4f43-853d-258a6fdef278	Gene Expression Quantification	released	RNA-Seq	1	12.0 - 30.0	TCGA-LUAD	91ccd2b8-0e8d-4226-a8d5-0ef413a159ff	released	f8d249c9-6792-47a0-a553-607ca1c76436_count	https://github.com/NCI-GDC/htseq-cwl	HTSeq - Counts	v1	Primary Tumor	FALSE	TCGA-44-2668	TCGA-44-2668-01A
687e2c81-ce43-4df9-a238-ed84661ff0c4	TXT	open	TCGA-44-6146-11A-01R-1858-07	36c6972a-3041-478c-a68d-702af9cc4954.htseq.counts.gz	36c6972a-3041-478c-a68d-702af9cc4954_count	Transcriptome Profiling	gene_expression	248318	2016-05-26T21:11:06.391722-05:00	2018-09-06T21:10:41.393019-05:00	f6d811c1f9a24e2b2ca060832ce49b01	687e2c81-ce43-4df9-a238-ed84661ff0c4	Gene Expression Quantification	released	RNA-Seq	1	12.0 - 30.0	TCGA-LUAD	bc1a1ee2-4f1f-47dc-acd4-61db13ed22a7	released	36c6972a-3041-478c-a68d-702af9cc4954_count	https://github.com/NCI-GDC/htseq-cwl	HTSeq - Counts	v1	Solid Tissue Normal	FALSE	TCGA-44-6146	TCGA-44-6146-11A
00e3c529-4162-4d0e-9d97-ec806a40e345	TXT	open	TCGA-44-6145-01A-11R-1755-07	9c62a984-f89a-4838-af13-786468b293c1.htseq.counts.gz	9c62a984-f89a-4838-af13-786468b293c1_count	Transcriptome Profiling	gene_expression	248718	2016-05-29T10:37:22.585958-05:00	2018-09-06T21:10:41.393019-05:00	655a62b0a554b30865c859f06691c91f	00e3c529-4162-4d0e-9d97-ec806a40e345	Gene Expression Quantification	released	RNA-Seq	1	12.0 - 30.0	TCGA-LUAD	1733222c-7a47-44cd-a66f-b6a29b615361	released	9c62a984-f89a-4838-af13-786468b293c1_count	https://github.com/NCI-GDC/htseq-cwl	HTSeq - Counts	v1	Primary Tumor	FALSE	TCGA-44-6145	TCGA-44-6145-01A
c850a269-deeb-4e5b-96fb-e4436357cfe8	TXT	open	TCGA-44-3398-11B-01R-1758-07	3b8a5a07-1e30-42f3-92ad-6bd4226f6c9f.htseq.counts.gz	3b8a5a07-1e30-42f3-92ad-6bd4226f6c9f_count	Transcriptome Profiling	gene_expression	256720	2016-06-01T23:31:22.363310-05:00	2018-09-06T21:10:41.393019-05:00	cd56a23602b900706c4a86887ba254b1	c850a269-deeb-4e5b-96fb-e4436357cfe8	Gene Expression Quantification	released	RNA-Seq	1	12.0 - 30.0	TCGA-LUAD	a46100be-ed14-4adc-8bac-50ff32f09404	released	3b8a5a07-1e30-42f3-92ad-6bd4226f6c9f_count	https://github.com/NCI-GDC/htseq-cwl	HTSeq - Counts	v1	Solid Tissue Normal	FALSE	TCGA-44-3398	TCGA-44-3398-11B
b418bbe2-aa91-4b09-b5d4-516c781a368d	TXT	open	TCGA-55-6981-01A-11R-1949-07	7c1d57e4-ea8b-4634-8b1d-65ef201dda59.htseq.counts.gz	7c1d57e4-ea8b-4634-8b1d-65ef201dda59_count	Transcriptome Profiling	gene_expression	245877	2016-05-26T21:10:12.372046-05:00	2018-09-06T21:10:41.393019-05:00	44185bbcd7d0f1c86ba0fb9c56cbbad4	b418bbe2-aa91-4b09-b5d4-516c781a368d	Gene Expression Quantification	released	RNA-Seq	1	12.0 - 30.0	TCGA-LUAD	138f7243-f017-45a8-9198-e9da79bf6ef5	released	7c1d57e4-ea8b-4634-8b1d-65ef201dda59_count	https://github.com/NCI-GDC/htseq-cwl	HTSeq - Counts	v1	Primary Tumor	FALSE	TCGA-55-6981	TCGA-55-6981-01A
3d169b9c-60d2-4a42-974a-051946d0ee03	TXT	open	TCGA-38-4626-11A-01R-1758-07	bfcc0178-87a0-481d-b694-eb429fdfbaf4.htseq.counts.gz	bfcc0178-87a0-481d-b694-eb429fdfbaf4_count	Transcriptome Profiling	gene_expression	254391	2016-05-26T21:20:58.023479-05:00	2018-09-06T21:10:41.393019-05:00	dca83872d13abe80d35a5348695e21ca	3d169b9c-60d2-4a42-974a-051946d0ee03	Gene Expression Quantification	released	RNA-Seq	1	12.0 - 30.0	TCGA-LUAD	6b5a221c-9e46-453f-bcf3-430ef7d7239a	released	bfcc0178-87a0-481d-b694-eb429fdfbaf4_count	https://github.com/NCI-GDC/htseq-cwl	HTSeq - Counts	v1	Solid Tissue Normal	FALSE	TCGA-38-4626	TCGA-38-4626-11A
db555419-c5b1-4ce7-8976-3230a2a7a3f4	TXT	open	TCGA-44-2668-01A-01R-A278-07	97cabc84-779b-4a98-9518-93ba4523db4a.htseq.counts.gz	97cabc84-779b-4a98-9518-93ba4523db4a_count	Transcriptome Profiling	gene_expression	251264	2016-05-29T11:02:51.002297-05:00	2018-09-06T21:10:41.393019-05:00	07eb1ef2c5bb51fca2cbba6d9a0b65b2	db555419-c5b1-4ce7-8976-3230a2a7a3f4	Gene Expression Quantification	released	RNA-Seq	1	12.0 - 30.0	TCGA-LUAD	1e3ba8af-5bbb-49be-8b5b-a7bd965dcff7	released	97cabc84-779b-4a98-9518-93ba4523db4a_count	https://github.com/NCI-GDC/htseq-cwl	HTSeq - Counts	v1	Primary Tumor	FALSE	TCGA-44-2668	TCGA-44-2668-01A
ae3f50ff-c20b-4d89-acab-d994b4ec3562	TXT	open	TCGA-91-6847-11A-01R-1949-07	6f7a250a-353a-4306-8c29-eec6582884eb.htseq.counts.gz	6f7a250a-353a-4306-8c29-eec6582884eb_count	Transcriptome Profiling	gene_expression	248642	2016-05-30T18:30:04.747283-05:00	2018-09-06T21:10:41.393019-05:00	7ba17554cdd206b41299b966faf8e7dc	ae3f50ff-c20b-4d89-acab-d994b4ec3562	Gene Expression Quantification	released	RNA-Seq	1	12.0 - 30.0	TCGA-LUAD	e0a73702-b71b-4b2a-9eb6-ec29c3941a26	released	6f7a250a-353a-4306-8c29-eec6582884eb_count	https://github.com/NCI-GDC/htseq-cwl	HTSeq - Counts	v1	Solid Tissue Normal	FALSE	TCGA-91-6847	TCGA-91-6847-11A
9fd2c7b5-c166-442f-bace-fcc97604d7bc	TXT	open	TCGA-44-2655-01A-01R-0946-07	cb537a4c-7b5c-493f-8dea-6fd0107e6c58.htseq.counts.gz	cb537a4c-7b5c-493f-8dea-6fd0107e6c58_count	Transcriptome Profiling	gene_expression	259538	2016-05-26T21:08:50.173961-05:00	2018-09-06T21:10:41.393019-05:00	71cbe4051280cd4d43ed7899af7d6b41	9fd2c7b5-c166-442f-bace-fcc97604d7bc	Gene Expression Quantification	released	RNA-Seq	1	12.0 - 30.0	TCGA-LUAD	9b85fcd7-55be-4cf6-b58b-02362c6c9f9e	released	cb537a4c-7b5c-493f-8dea-6fd0107e6c58_count	https://github.com/NCI-GDC/htseq-cwl	HTSeq - Counts	v1	Primary Tumor	FALSE	TCGA-44-2655	TCGA-44-2655-01A
bf77a97a-fb11-492d-b7d6-119f16b6b6c0	TXT	open	TCGA-55-6979-11A-01R-1949-07	adf180fd-e40c-433a-af02-9c2cfe8174bd.htseq.counts.gz	adf180fd-e40c-433a-af02-9c2cfe8174bd_count	Transcriptome Profiling	gene_expression	245953	2016-05-29T10:33:46.520576-05:00	2018-09-06T21:10:41.393019-05:00	60c3de14d46d801408f70fbfff27fd9f	bf77a97a-fb11-492d-b7d6-119f16b6b6c0	Gene Expression Quantification	released	RNA-Seq	1	12.0 - 30.0	TCGA-LUAD	849c518b-9929-4cff-b327-b843a15acbf5	released	adf180fd-e40c-433a-af02-9c2cfe8174bd_count	https://github.com/NCI-GDC/htseq-cwl	HTSeq - Counts	v1	Solid Tissue Normal	FALSE	TCGA-55-6979	TCGA-55-6979-11A
7ed5c3fe-5e5b-45ed-b873-5c333f641422	TXT	open	TCGA-91-6849-01A-11R-1949-07	16c42b24-fcaf-43e2-8f52-d7488f82257b.htseq.counts.gz	16c42b24-fcaf-43e2-8f52-d7488f82257b_count	Transcriptome Profiling	gene_expression	245809	2016-05-29T10:54:21.438858-05:00	2018-09-06T21:10:41.393019-05:00	84382aff3980bf9cdc623c5c4a11f56b	7ed5c3fe-5e5b-45ed-b873-5c333f641422	Gene Expression Quantification	released	RNA-Seq	1	12.0 - 30.0	TCGA-LUAD	7148a47a-0075-4f27-aafa-924e3d5d2537	released	16c42b24-fcaf-43e2-8f52-d7488f82257b_count	https://github.com/NCI-GDC/htseq-cwl	HTSeq - Counts	v1	Primary Tumor	FALSE	TCGA-91-6849	TCGA-91-6849-01A
4f222653-52ea-4adc-975d-b181a2889525	TXT	open	TCGA-50-5933-11A-01R-1755-07	562cb51b-fef8-4d61-9067-9177a2249c45.htseq.counts.gz	562cb51b-fef8-4d61-9067-9177a2249c45_count	Transcriptome Profiling	gene_expression	250596	2016-05-30T18:23:45.194616-05:00	2018-09-06T21:10:41.393019-05:00	03939429ead3931f62e94eb64e0e9867	4f222653-52ea-4adc-975d-b181a2889525	Gene Expression Quantification	released	RNA-Seq	1	12.0 - 30.0	TCGA-LUAD	1c1c6b2d-1c66-4ddc-8191-1a48e9243b98	released	562cb51b-fef8-4d61-9067-9177a2249c45_count	https://github.com/NCI-GDC/htseq-cwl	HTSeq - Counts	v1	Solid Tissue Normal	FALSE	TCGA-50-5933	TCGA-50-5933-11A
6dc80d55-8af8-453d-a695-358a64fcfe37	TXT	open	TCGA-49-6742-01A-11R-1858-07	c763a179-e1ba-43a6-b34f-cbe73098e535.htseq.counts.gz	c763a179-e1ba-43a6-b34f-cbe73098e535_count	Transcriptome Profiling	gene_expression	249791	2016-05-26T21:21:40.389279-05:00	2018-09-06T21:10:41.393019-05:00	5ea35805d34e2caedb4116217b0d8773	6dc80d55-8af8-453d-a695-358a64fcfe37	Gene Expression Quantification	released	RNA-Seq	1	12.0 - 30.0	TCGA-LUAD	66c627a2-7177-420e-beeb-8c3a14fd1a9f	released	c763a179-e1ba-43a6-b34f-cbe73098e535_count	https://github.com/NCI-GDC/htseq-cwl	HTSeq - Counts	v1	Primary Tumor	FALSE	TCGA-49-6742	TCGA-49-6742-01A
c7dbb413-1f2c-472e-8158-6bd6fd69a77a	TXT	open	TCGA-91-6836-01A-21R-1858-07	e879390d-b662-4121-8137-e35bf208edac.htseq.counts.gz	e879390d-b662-4121-8137-e35bf208edac_count	Transcriptome Profiling	gene_expression	251734	2016-05-26T21:10:38.190063-05:00	2018-09-06T21:10:41.393019-05:00	237b157a3cd3240db8e34436412917b7	c7dbb413-1f2c-472e-8158-6bd6fd69a77a	Gene Expression Quantification	released	RNA-Seq	1	12.0 - 30.0	TCGA-LUAD	ddeeb685-6e8c-444d-b32c-9bb8c97b4392	released	e879390d-b662-4121-8137-e35bf208edac_count	https://github.com/NCI-GDC/htseq-cwl	HTSeq - Counts	v1	Primary Tumor	FALSE	TCGA-91-6836	TCGA-91-6836-01A
031e2bfe-03f2-4e9b-b586-73746c5e29cf	TXT	open	TCGA-44-6148-01A-11R-1755-07	d876380c-cad9-40e7-a627-f2fd2322509c.htseq.counts.gz	d876380c-cad9-40e7-a627-f2fd2322509c_count	Transcriptome Profiling	gene_expression	254462	2016-05-29T10:48:01.372441-05:00	2018-09-06T21:10:41.393019-05:00	4e6cd2381f89973a0f53402fa714c15a	031e2bfe-03f2-4e9b-b586-73746c5e29cf	Gene Expression Quantification	released	RNA-Seq	1	12.0 - 30.0	TCGA-LUAD	777d54e7-6ad9-4f40-8e57-430da37de4b7	released	d876380c-cad9-40e7-a627-f2fd2322509c_count	https://github.com/NCI-GDC/htseq-cwl	HTSeq - Counts	v1	Primary Tumor	FALSE	TCGA-44-6148	TCGA-44-6148-01A
cbd48108-afce-4f8e-ab33-db9d567834d3	TXT	open	TCGA-91-6828-11A-01R-1858-07	b2ca49c5-527d-43e0-8280-6fe8ff7b3738.htseq.counts.gz	b2ca49c5-527d-43e0-8280-6fe8ff7b3738_count	Transcriptome Profiling	gene_expression	250536	2016-05-29T10:54:19.756080-05:00	2018-09-06T21:10:41.393019-05:00	270be55802050abfb9b08b717f937063	cbd48108-afce-4f8e-ab33-db9d567834d3	Gene Expression Quantification	released	RNA-Seq	1	12.0 - 30.0	TCGA-LUAD	d01cf56d-f4c9-45b0-a410-1d3e57a4ce33	released	b2ca49c5-527d-43e0-8280-6fe8ff7b3738_count	https://github.com/NCI-GDC/htseq-cwl	HTSeq - Counts	v1	Solid Tissue Normal	FALSE	TCGA-91-6828	TCGA-91-6828-11A
323d5524-de9e-4fbc-81a0-f480e4bcad78	TXT	open	TCGA-91-6828-01A-11R-1858-07	d5f29606-e2c0-42a9-af59-fb178fcf7201.htseq.counts.gz	d5f29606-e2c0-42a9-af59-fb178fcf7201_count	Transcriptome Profiling	gene_expression	247175	2016-05-29T10:54:19.209506-05:00	2018-09-06T21:10:41.393019-05:00	b008b22b5f26bb89ba3a63563362fb3f	323d5524-de9e-4fbc-81a0-f480e4bcad78	Gene Expression Quantification	released	RNA-Seq	1	12.0 - 30.0	TCGA-LUAD	18aa62ad-67a3-42b7-b55e-55667e51baa0	released	d5f29606-e2c0-42a9-af59-fb178fcf7201_count	https://github.com/NCI-GDC/htseq-cwl	HTSeq - Counts	v1	Primary Tumor	FALSE	TCGA-91-6828	TCGA-91-6828-01A
782c15f6-580e-42be-91f3-f6458a17d6b0	TXT	open	TCGA-91-6829-01A-21R-1858-07	e750282f-7315-46bb-9911-5bdac74fb1eb.htseq.counts.gz	e750282f-7315-46bb-9911-5bdac74fb1eb_count	Transcriptome Profiling	gene_expression	252889	2016-05-26T21:15:11.899491-05:00	2018-09-06T21:10:41.393019-05:00	1fad8eb7781ef0e1d64228a77804f00e	782c15f6-580e-42be-91f3-f6458a17d6b0	Gene Expression Quantification	released	RNA-Seq	1	12.0 - 30.0	TCGA-LUAD	31412efe-9e7d-42ff-be68-061067ef37fd	released	e750282f-7315-46bb-9911-5bdac74fb1eb_count	https://github.com/NCI-GDC/htseq-cwl	HTSeq - Counts	v1	Primary Tumor	FALSE	TCGA-91-6829	TCGA-91-6829-01A
8718d1dc-a543-414e-b2b0-36f3110408d1	TXT	open	TCGA-91-6835-11A-01R-1858-07	252eeb0c-fad1-4c29-bdd8-57b511852de5.htseq.counts.gz	252eeb0c-fad1-4c29-bdd8-57b511852de5_count	Transcriptome Profiling	gene_expression	252932	2016-05-29T10:07:59.153694-05:00	2018-09-06T21:10:41.393019-05:00	ff3f5fe80ed7974d22c3814af85392a9	8718d1dc-a543-414e-b2b0-36f3110408d1	Gene Expression Quantification	released	RNA-Seq	1	12.0 - 30.0	TCGA-LUAD	05675562-840f-444b-b432-ca9409bb7424	released	252eeb0c-fad1-4c29-bdd8-57b511852de5_count	https://github.com/NCI-GDC/htseq-cwl	HTSeq - Counts	v1	Solid Tissue Normal	FALSE	TCGA-91-6835	TCGA-91-6835-11A
0953ce77-71fe-4942-96be-27658135bbd8	TXT	open	TCGA-44-2657-11A-01R-1758-07	557b2e70-c648-4da7-90b6-b2d844e9b6ac.htseq.counts.gz	557b2e70-c648-4da7-90b6-b2d844e9b6ac_count	Transcriptome Profiling	gene_expression	252070	2016-05-30T19:01:51.347506-05:00	2018-09-06T21:10:41.393019-05:00	d91eee60fcb94972c90426ece7233e54	0953ce77-71fe-4942-96be-27658135bbd8	Gene Expression Quantification	released	RNA-Seq	1	12.0 - 30.0	TCGA-LUAD	6f1d385d-9278-46f6-884a-717078cc6d68	released	557b2e70-c648-4da7-90b6-b2d844e9b6ac_count	https://github.com/NCI-GDC/htseq-cwl	HTSeq - Counts	v1	Solid Tissue Normal	FALSE	TCGA-44-2657	TCGA-44-2657-11A
a314ea2c-5bc0-4b07-b4c8-9fcafd9acaa8	TXT	open	TCGA-44-2665-01A-01R-0946-07	d31beca5-e987-4def-906a-63f68ecc5c7a.htseq.counts.gz	d31beca5-e987-4def-906a-63f68ecc5c7a_count	Transcriptome Profiling	gene_expression	256440	2016-05-30T21:05:04.174772-05:00	2018-09-06T21:10:41.393019-05:00	7ada942531757f2b5b01c1710b638251	a314ea2c-5bc0-4b07-b4c8-9fcafd9acaa8	Gene Expression Quantification	released	RNA-Seq	1	12.0 - 30.0	TCGA-LUAD	901c1917-86a2-459e-bc29-8522a2526909	released	d31beca5-e987-4def-906a-63f68ecc5c7a_count	https://github.com/NCI-GDC/htseq-cwl	HTSeq - Counts	v1	Primary Tumor	FALSE	TCGA-44-2665	TCGA-44-2665-01A
